censuscode,cdcode,censusname
1010,1001,"Avalon Peninsula, Newfoundland and Labrador "
1350,"1311, 1312, 1313","Edmundston-Woodstock, New Brunswick "
1340,"1303, 1304, 1310","Fredericton-Oromocto, New Brunswick "
2415,"2407, 2408, 2409, 2410, 2411, 2412, 2413, 2414","Bas-Saint-Laurent, Quebec "
2430,"2430, 2440, 2441, 2442, 2443, 2444, 2445","Estrie, Quebec "
2420,"2415, 2416, 2420, 2421, 2422, 2423, 2434","Capitale-Nationale, Quebec "
1330,"1301, 1302, 1305","Saint John-St. Stephen, New Brunswick "
1320,"1306, 1307, 1308","Moncton-Richibucto, New Brunswick "
2410,"2401, 2402, 2403, 2404, 2405, 2406","Gaspesie-Iles-de-la-Madeleine, Quebec "
2425,"2417, 2418, 2419, 2425, 2426, 2427, 2428, 2429, 2431, 2433","Chaudiere-Appalaches, Quebec "
1310,"1309, 1314, 1315","Campbellton-Miramichi, New Brunswick "
1250,1209,"Halifax, Nova Scotia "
"5960, 5970","5951, 5957","North Coast and Nechako, British Columbia "
1230,"1205, 1207, 1208","Annapolis Valley, Nova Scotia "
5980,"5955, 5959","Northeast, British Columbia "
1240,"1201, 1202, 1203, 1204, 1206","Southern, Nova Scotia "
5950,"5941, 5953","Cariboo, British Columbia "
1220,"1210, 1211, 1212, 1213, 1214","North Shore, Nova Scotia "
1210,"1215, 1216, 1217, 1218","Cape Breton, Nova Scotia "
"5960, 5970","5947, 5949","North Coast and Nechako, British Columbia "
5940,"5901, 5903, 5905","Kootenay, British Columbia "
4860,4811,"Edmonton, Alberta "
5930,"5907, 5933, 5935, 5937, 5939","Thompson-Okanagan, British Columbia "
4870,"4813, 4817, 4818, 4819","Athabasca-Grande Prairie-Peace River, Alberta "
4850,4808,"Red Deer, Alberta "
4830,4806,"Calgary, Alberta "
4840,"4809, 4814, 4815","Banff-Jasper-Rocky Mountain House, Alberta "
5910,"5917, 5919, 5921, 5923, 5925, 5927, 5943, 5945","Vancouver Island and Coast, British Columbia "
4880,"4812, 4816","Wood Buffalo-Cold Lake, Alberta "
4810,"4801, 4802, 4803","Lethbridge-Medicine Hat, Alberta "
"4750, 4760","4714, 4715, 4716, 4717","Prince Albert and Northern, Saskatchewan "
4820,"4804, 4805, 4807, 4810","Camrose-Drumheller, Alberta "
"4750, 4760",4718,"Prince Albert and Northern, Saskatchewan "
4740,"4705, 4709, 4710","Yorkton-Melville, Saskatchewan "
4730,"4711, 4712, 4713","Saskatoon-Biggar, Saskatchewan "
5920,"5909, 5915, 5929, 5931","Lower Mainland-Southwest, British Columbia "
4720,"4703, 4704, 4707, 4708","Swift Current-Moose Jaw, Saskatchewan "
4710,"4701, 4702, 4706","Regina-Moose Mountain, Saskatchewan "
"4670, 4680","4619, 4621, 4622, 4623","Parklands and North, Manitoba "
4630,"4605, 4606, 4607, 4615","Southwest, Manitoba "
"4670, 4680","4616, 4617, 4620","Parklands and North, Manitoba "
4640,"4608, 4609, 4610","North Central, Manitoba "
4660,"4613, 4614, 4618","Interlake, Manitoba "
4650,4611,"Winnipeg, Manitoba "
4620,"4603, 4604","South Central, Manitoba "
4610,"4601, 4602, 4612","Southeast, Manitoba "
3595,"3558, 3559, 3560","Northwest, Ontario "
3590,"3548, 3549, 3551, 3552, 3553, 3554, 3556, 3557","Northeast, Ontario "
3580,"3531, 3540, 3541, 3542","Stratford-Bruce Peninsula, Ontario "
3570,"3536, 3537, 3538","Windsor-Sarnia, Ontario "
3560,"3532, 3534, 3539","London, Ontario "
3550,"3524, 3525, 3526, 3528, 3529","Hamilton-Niagara Peninsula, Ontario "
3540,"3522, 3523, 3530, 3543","Kitchener-Waterloo-Barrie, Ontario "
3530,"3518, 3519, 3520, 3521, 3524","Toronto, Ontario "
3520,"3514, 3515, 3516, 3544, 3546","Muskoka-Kawarthas, Ontario "
3515,"3510, 3511, 3512, 3513, 3547","Kingston-Pembroke, Ontario "
3510,"3501, 3502, 3506, 3507, 3509","Ottawa, Ontario "
"2480, 2490",2499,"Cote-Nord and Nord-du-Quebec, Quebec "
"2480, 2490","2495, 2496, 2497, 2498","Cote-Nord and Nord-du-Quebec, Quebec "
2475,"2491, 2492, 2493, 2494","Saguenay-Lac-Saint-Jean, Quebec "
2470,"2435, 2436, 2437, 2451, 2490","Mauricie, Quebec "
2465,"2485, 2486, 2487, 2488, 2489","Abitibi-Temiscamingue, Quebec "
2460,"2480, 2481, 2482, 2483, 2484","Outaouais, Quebec "
2455,"2472, 2473, 2474, 2475, 2476, 2477, 2478, 2479","Laurentides, Quebec "
2450,"2452, 2460, 2461, 2462, 2463, 2464","Lanaudiere, Quebec "
2445,2465,"Laval, Quebec "
2440,2466,"Montreal, Quebec "
2435,"2446, 2447, 2448, 2453, 2454, 2455, 2456, 2457, 2458, 2459, 2467, 2468, 2469, 2470, 2471","Monteregie, Quebec "
2433,"2432, 2438, 2439, 2449, 2450","Centre-du-Quebec, Quebec "
1040,"1006, 1007, 1008","Notre Dame-Central Bonavista Bay, Newfoundland and Labrador "
1030,"1004, 1005, 1009, 1010, 1011","West Coast-Northern Peninsula-Labrador, Newfoundland and Labrador "
1020,"1002, 1003","South Coast-Burin Peninsula, Newfoundland and Labrador "
