category,renewal_dates,alt_names,revocation_dates,firm_name
Investment Dealer,"March 27, 1999",A.C. MACPHERSON & CO. INC.,"July 27, 2000",A.C. MacPherson & Co. Inc.
Investment Dealer,"March 27, 1997",A.C. MACPHERSON & CO. INC.,"March 26, 1999",A.C. MacPherson & Co. Inc.
Investment Dealer,"November 03, 2004",AIC PRIVATE PORTFOLIO GROUP INC./SERVICES DE GESTION PRIVEE AIC INC.,"May 03, 2006",AIC Private Portfolio Group Inc.
Securities & Options,"December 19, 2005",AIC PRIVATE PORTFOLIO GROUP INC./SERVICES DE GESTION PRIVEE AIC INC.,"May 03, 2006",AIC Private Portfolio Group Inc.
"Securities, Options & Managed Accounts","November 03, 2004",AIC PRIVATE PORTFOLIO GROUP INC./SERVICES DE GESTION PRIVEE AIC INC.,"December 19, 2005",AIC Private Portfolio Group Inc.
Investment Dealer (Securities),"June 01, 2004",AIC PRIVATE PORTFOLIO GROUP INC./SERVICES DE GESTION PRIVEE AIC INC.,"May 03, 2006",AIC Private Portfolio Group Inc.
Securities & Options,"December 19, 2005",AIC PRIVATE PORTFOLIO GROUP INC./SERVICES DE GESTION PRIVEE AIC INC.,"May 03, 2006",AIC Private Portfolio Group Inc.
"Securities, Options & Managed Accounts","June 01, 2004",AIC PRIVATE PORTFOLIO GROUP INC./SERVICES DE GESTION PRIVEE AIC INC.,"December 19, 2005",AIC Private Portfolio Group Inc.
Investment Dealer,"January 11, 2005",AIC PRIVATE PORTFOLIO GROUP INC./SERVICES DE GESTION PRIVEE AIC INC.,"June 21, 2006",AIC Private Portfolio Group Inc.
Securities & Options,"January 20, 2006",AIC PRIVATE PORTFOLIO GROUP INC./SERVICES DE GESTION PRIVEE AIC INC.,"June 21, 2006",AIC Private Portfolio Group Inc.
"Securities, Options & Managed Accounts","January 11, 2005",AIC PRIVATE PORTFOLIO GROUP INC./SERVICES DE GESTION PRIVEE AIC INC.,"January 20, 2006",AIC Private Portfolio Group Inc.
Investment Dealer,"January 10, 2005",AIC PRIVATE PORTFOLIO GROUP INC./SERVICES DE GESTION PRIVEE AIC INC.,"May 03, 2006",AIC Private Portfolio Group Inc.
Investment Dealer,"November 15, 2004",AIC PRIVATE PORTFOLIO GROUP INC./SERVICES DE GESTION PRIVEE AIC INC.,"November 23, 2004",AIC Private Portfolio Group Inc.
Securities & Options,"December 19, 2005",AIC PRIVATE PORTFOLIO GROUP INC./SERVICES DE GESTION PRIVEE AIC INC.,"May 03, 2006",AIC Private Portfolio Group Inc.
"Securities, Options & Managed Accounts","January 10, 2005",AIC PRIVATE PORTFOLIO GROUP INC./SERVICES DE GESTION PRIVEE AIC INC.,"December 19, 2005",AIC Private Portfolio Group Inc.
"Securities, Options & Managed Accounts","November 15, 2004",AIC PRIVATE PORTFOLIO GROUP INC./SERVICES DE GESTION PRIVEE AIC INC.,"November 23, 2004",AIC Private Portfolio Group Inc.
Investment Dealer,"May 03, 2006",AIC PRIVATE PORTFOLIO GROUP INC./SERVICES DE GESTION PRIVEE AIC INC.,"January 29, 2007",AIC Private Portfolio Group Inc.
Investment Dealer,"November 15, 2004",AIC PRIVATE PORTFOLIO GROUP INC./SERVICES DE GESTION PRIVEE AIC INC.,"January 10, 2005",AIC Private Portfolio Group Inc.
Securities & Options,"May 03, 2006",AIC PRIVATE PORTFOLIO GROUP INC./SERVICES DE GESTION PRIVEE AIC INC.,"January 29, 2007",AIC Private Portfolio Group Inc.
"Securities, Options & Managed Accounts","November 15, 2004",AIC PRIVATE PORTFOLIO GROUP INC./SERVICES DE GESTION PRIVEE AIC INC.,"January 10, 2005",AIC Private Portfolio Group Inc.
Investment Dealer,"October 06, 2004",AIC PRIVATE PORTFOLIO GROUP INC./SERVICES DE GESTION PRIVEE AIC INC.,"May 03, 2006",AIC Private Portfolio Group Inc.
Securities & Options,"December 19, 2005",AIC PRIVATE PORTFOLIO GROUP INC./SERVICES DE GESTION PRIVEE AIC INC.,"May 03, 2006",AIC Private Portfolio Group Inc.
"Securities, Options & Managed Accounts","October 06, 2004",AIC PRIVATE PORTFOLIO GROUP INC./SERVICES DE GESTION PRIVEE AIC INC.,"December 19, 2005",AIC Private Portfolio Group Inc.
Unrestricted Practice Dealer (Introducing Broker),"December 22, 2004",AIC PRIVATE PORTFOLIO GROUP INC./SERVICES DE GESTION PRIVEE AIC INC.,"July 06, 2006",AIC Private Portfolio Group Inc.
Securities & Options,"December 22, 2004",AIC PRIVATE PORTFOLIO GROUP INC./SERVICES DE GESTION PRIVEE AIC INC.,"July 06, 2006",AIC Private Portfolio Group Inc.
Unrestricted Practice Advisor,"December 21, 2004",SIGMA ALPHA CAPITAL INC.,"September 28, 2009",Alpha Capital Inc.
Investment Dealer,"March 14, 2003",ALTAMIRA SECURITIES,"September 05, 2003",Altamira Securities
Securities,"March 14, 2003",ALTAMIRA SECURITIES,"September 05, 2003",Altamira Securities
Investment Dealer (Securities),"March 14, 2003",ALTAMIRA SECURITIES,"September 05, 2003",Altamira Securities
Securities,"March 14, 2003",ALTAMIRA SECURITIES,"September 05, 2003",Altamira Securities
Investment Dealer,"January 01, 2003",ALTAMIRA SECURITIES,"March 14, 2003",Altamira Securities
Investment Dealer,"May 06, 2002",ALTAMIRA SECURITIES,"January 01, 2003",Altamira Securities
Investment Dealer,"May 06, 2000",ALTAMIRA SECURITIES,"May 06, 2002",Altamira Securities
Investment Dealer,"May 06, 1998",ALTAMIRA SECURITIES,"May 05, 2000",Altamira Securities
Investment Dealer,"May 06, 1996",ALTAMIRA SECURITIES,"May 05, 1998",Altamira Securities
Investment Dealer,"March 14, 2003",ALTAMIRA SECURITIES,"October 20, 2003",Altamira Securities
Securities,"March 14, 2003",ALTAMIRA SECURITIES,"October 20, 2003",Altamira Securities
Investment Dealer,"March 14, 2003",ALTAMIRA SECURITIES,"September 19, 2003",Altamira Securities
Securities,"March 14, 2003",ALTAMIRA SECURITIES,"September 19, 2003",Altamira Securities
Investment Dealer,"September 19, 2003",ALTAMIRA SECURITIES,"November 13, 2003",Altamira Securities
Securities,"September 19, 2003",ALTAMIRA SECURITIES,"November 13, 2003",Altamira Securities
Investment Dealer,"March 14, 2003",ALTAMIRA SECURITIES,"December 15, 2003",Altamira Securities
Securities,"March 14, 2003",ALTAMIRA SECURITIES,"December 15, 2003",Altamira Securities
Investment Dealer,"March 14, 2003",ALTAMIRA SECURITIES,"September 05, 2003",Altamira Securities
Securities,"March 14, 2003",ALTAMIRA SECURITIES,"September 05, 2003",Altamira Securities
Investment Dealer,"September 05, 2003",ALTAMIRA SECURITIES,"December 08, 2003",Altamira Securities
Securities,"September 05, 2003",ALTAMIRA SECURITIES,"December 08, 2003",Altamira Securities
Investment Dealer,"March 14, 2003",ALTAMIRA SECURITIES,"December 09, 2003",Altamira Securities
Securities,"March 14, 2003",ALTAMIRA SECURITIES,"December 09, 2003",Altamira Securities
Investment Dealer,"March 14, 2003",ALTAMIRA SECURITIES,"October 09, 2003",Altamira Securities
Securities,"March 14, 2003",ALTAMIRA SECURITIES,"October 09, 2003",Altamira Securities
Investment Dealer,"March 14, 2003","AMERITRADE CANADA, INC.","June 02, 2006","Ameritrade Canada, Inc."
Securities & Options,"March 14, 2003","AMERITRADE CANADA, INC.","June 02, 2006","Ameritrade Canada, Inc."
Investment Dealer (Securities),"March 14, 2003","AMERITRADE CANADA, INC.","June 02, 2006","Ameritrade Canada, Inc."
Securities & Options,"March 14, 2003","AMERITRADE CANADA, INC.","June 02, 2006","Ameritrade Canada, Inc."
Investment Dealer,"January 01, 2003","AMERITRADE CANADA, INC.","March 14, 2003","Ameritrade Canada, Inc."
Investment Dealer,"July 19, 2002","AMERITRADE CANADA, INC.","January 01, 2003","Ameritrade Canada, Inc."
Investment Dealer,"March 14, 2003","AMERITRADE CANADA, INC.","October 13, 2006","Ameritrade Canada, Inc."
Securities & Options,"March 14, 2003","AMERITRADE CANADA, INC.","October 13, 2006","Ameritrade Canada, Inc."
Investment Dealer,"March 14, 2003","AMERITRADE CANADA, INC.","June 02, 2006","Ameritrade Canada, Inc."
Securities & Options,"March 14, 2003","AMERITRADE CANADA, INC.","June 02, 2006","Ameritrade Canada, Inc."
Investment Dealer,"March 14, 2003","AMERITRADE CANADA, INC.","June 02, 2006","Ameritrade Canada, Inc."
Securities & Options,"March 14, 2003","AMERITRADE CANADA, INC.","June 02, 2006","Ameritrade Canada, Inc."
Investment Dealer,"March 14, 2003","AMERITRADE CANADA, INC.","June 02, 2006","Ameritrade Canada, Inc."
Securities & Options,"March 14, 2003","AMERITRADE CANADA, INC.","June 02, 2006","Ameritrade Canada, Inc."
Investment Dealer,"March 14, 2003","AMERITRADE CANADA, INC.","June 02, 2006","Ameritrade Canada, Inc."
Securities & Options,"March 14, 2003","AMERITRADE CANADA, INC.","June 02, 2006","Ameritrade Canada, Inc."
Investment Dealer,"March 14, 2003","AMERITRADE CANADA, INC.","June 02, 2006","Ameritrade Canada, Inc."
Securities & Options,"March 14, 2003","AMERITRADE CANADA, INC.","June 02, 2006","Ameritrade Canada, Inc."
Investment Dealer,"March 14, 2003","AMERITRADE CANADA, INC.","June 02, 2006","Ameritrade Canada, Inc."
Securities & Options,"March 14, 2003","AMERITRADE CANADA, INC.","June 02, 2006","Ameritrade Canada, Inc."
Unrestricted Practice Dealer,"December 16, 2004","AMERITRADE CANADA, INC.","June 20, 2006","Ameritrade Canada, Inc."
Securities & Options,"December 16, 2004","AMERITRADE CANADA, INC.","June 20, 2006","Ameritrade Canada, Inc."
Investment Dealer,"March 14, 2003","AMERITRADE CANADA, INC.","July 21, 2006","Ameritrade Canada, Inc."
Securities & Options,"March 14, 2003","AMERITRADE CANADA, INC.","July 21, 2006","Ameritrade Canada, Inc."
Broker - Securities,"March 14, 2003","AMERITRADE CANADA, INC.","June 02, 2006","Ameritrade Canada, Inc."
Securities & Options,"March 14, 2003","AMERITRADE CANADA, INC.","June 02, 2006","Ameritrade Canada, Inc."
Investment Dealer,"March 14, 2003",AQUILON CAPITAL CORP.,"May 14, 2008",Aquilon Capital Corp.
"Securities, Options & Managed Accounts","March 14, 2003",AQUILON CAPITAL CORP.,"May 14, 2008",Aquilon Capital Corp.
Investment Dealer (Securities),"March 14, 2003",AQUILON CAPITAL CORP.,"November 06, 2008",Aquilon Capital Corp.
"Securities, Options & Managed Accounts","March 14, 2003",AQUILON CAPITAL CORP.,"November 06, 2008",Aquilon Capital Corp.
Investment Dealer,"January 01, 2003",AQUILON CAPITAL CORP.,"March 14, 2003",Aquilon Capital Corp.
Investment Dealer,"August 13, 2002",AQUILON CAPITAL CORP.,"January 01, 2003",Aquilon Capital Corp.
Investment Dealer,"September 28, 2009",AQUILON CAPITAL CORP.,"February 08, 2010",Aquilon Capital Corp.
Investment Dealer,"January 19, 2007",AQUILON CAPITAL CORP.,"September 28, 2009",Aquilon Capital Corp.
"Securities, Options & Managed Accounts","January 19, 2007",AQUILON CAPITAL CORP.,"February 08, 2010",Aquilon Capital Corp.
Investment Dealer,"September 28, 2009",AQUILON CAPITAL CORP.,"February 01, 2010",Aquilon Capital Corp.
Investment Dealer,"December 11, 2007",AQUILON CAPITAL CORP.,"September 28, 2009",Aquilon Capital Corp.
"Securities, Options & Managed Accounts","December 11, 2007",AQUILON CAPITAL CORP.,"February 01, 2010",Aquilon Capital Corp.
Broker,"March 22, 1995",ASIA PACIFIC SECURITIES CORP.,"March 20, 1997",Asia Pacific Securities Corp.
Unrestricted Practice Dealer,"December 17, 2004",BANC OF AMERICA SECURITIES CANADA CO. / BANC D'AMERIQUE VALEURS MOBILIERES DU CANADA,"September 28, 2009",Banc of America Securities Canada Co.
Securities,"December 17, 2004",BANC OF AMERICA SECURITIES CANADA CO. / BANC D'AMERIQUE VALEURS MOBILIERES DU CANADA,"September 28, 2009",Banc of America Securities Canada Co.
Unrestricted Practice Dealer,"September 28, 2009",BANC OF AMERICA SECURITIES CANADA CO. / BANC D'AMERIQUE VALEURS MOBILIERES DU CANADA,"September 28, 2009",Banc of America Securities Canada Co.
Securities,"September 28, 2009",BANC OF AMERICA SECURITIES CANADA CO. / BANC D'AMERIQUE VALEURS MOBILIERES DU CANADA,"September 28, 2009",Banc of America Securities Canada Co.
Investment Dealer,"March 14, 2003",BENSON-QUINN-GMS INC.,"December 23, 2004",Benson-Quinn-GMS Inc.
Futures Contracts and Futures Contract Options & Managed Accounts,"February 13, 2004",BENSON-QUINN-GMS INC.,"December 23, 2004",Benson-Quinn-GMS Inc.
Futures Contracts and Futures Contract Options,"March 14, 2003",BENSON-QUINN-GMS INC.,"February 13, 2004",Benson-Quinn-GMS Inc.
Investment Dealer (Exchange Contracts),"March 14, 2003",BENSON-QUINN-GMS INC.,"December 03, 2004",Benson-Quinn-GMS Inc.
Futures Contracts and Futures Contract Options & Managed Accounts,"February 13, 2004",BENSON-QUINN-GMS INC.,"December 03, 2004",Benson-Quinn-GMS Inc.
Futures Contracts and Futures Contract Options,"March 14, 2003",BENSON-QUINN-GMS INC.,"February 13, 2004",Benson-Quinn-GMS Inc.
Investment Dealer,"January 01, 2003",BENSON-QUINN-GMS INC.,"March 14, 2003",Benson-Quinn-GMS Inc.
Investment Dealer,"April 30, 2002",BENSON-QUINN-GMS INC.,"January 01, 2003",Benson-Quinn-GMS Inc.
Dealer (Futures Commission Merchant),"March 14, 2003",BENSON-QUINN-GMS INC.,"December 29, 2004",Benson-Quinn-GMS Inc.
Futures Contracts and Futures Contract Options & Managed Accounts,"February 13, 2004",BENSON-QUINN-GMS INC.,"December 29, 2004",Benson-Quinn-GMS Inc.
Futures Contracts and Futures Contract Options,"March 14, 2003",BENSON-QUINN-GMS INC.,"February 13, 2004",Benson-Quinn-GMS Inc.
Investment Dealer,"March 14, 2003",BENSON-QUINN-GMS INC.,"December 31, 2004",Benson-Quinn-GMS Inc.
Futures Contracts and Futures Contract Options & Managed Accounts,"February 16, 2004",BENSON-QUINN-GMS INC.,"December 31, 2004",Benson-Quinn-GMS Inc.
Futures Contracts and Futures Contract Options,"March 14, 2003",BENSON-QUINN-GMS INC.,"February 16, 2004",Benson-Quinn-GMS Inc.
Investment Dealer,"May 01, 2003",BENSON-QUINN-GMS INC.,"December 31, 2004",Benson-Quinn-GMS Inc.
Futures Contracts and Futures Contract Options & Managed Accounts,"February 16, 2004",BENSON-QUINN-GMS INC.,"December 31, 2004",Benson-Quinn-GMS Inc.
Futures Contracts and Futures Contract Options,"May 01, 2003",BENSON-QUINN-GMS INC.,"February 16, 2004",Benson-Quinn-GMS Inc.
Investment Dealer,"March 14, 2003",BENSON-QUINN-GMS INC.,"December 23, 2004",Benson-Quinn-GMS Inc.
Futures Contracts and Futures Contract Options & Managed Accounts,"February 16, 2004",BENSON-QUINN-GMS INC.,"December 23, 2004",Benson-Quinn-GMS Inc.
Futures Contracts and Futures Contract Options,"March 14, 2003",BENSON-QUINN-GMS INC.,"February 16, 2004",Benson-Quinn-GMS Inc.
Investment Dealer,"March 14, 2003",BENSON-QUINN-GMS INC.,"December 31, 2004",Benson-Quinn-GMS Inc.
Futures Contracts and Futures Contract Options & Managed Accounts,"February 13, 2004",BENSON-QUINN-GMS INC.,"December 31, 2004",Benson-Quinn-GMS Inc.
Futures Contracts and Futures Contract Options,"March 14, 2003",BENSON-QUINN-GMS INC.,"February 13, 2004",Benson-Quinn-GMS Inc.
Investment Dealer,"March 14, 2003",BIEBER SECURITIES INC.,"August 06, 2008",Bieber Securities Inc.
Securities & Options,"March 14, 2003",BIEBER SECURITIES INC.,"August 06, 2008",Bieber Securities Inc.
Investment Dealer (Securities),"March 14, 2003",BIEBER SECURITIES INC.,"August 06, 2008",Bieber Securities Inc.
Securities & Options,"March 14, 2003",BIEBER SECURITIES INC.,"August 06, 2008",Bieber Securities Inc.
Investment Dealer,"January 01, 2003",BIEBER SECURITIES INC.,"March 14, 2003",Bieber Securities Inc.
Investment Dealer,"March 20, 2002",BIEBER SECURITIES INC.,"January 01, 2003",Bieber Securities Inc.
Investment Dealer,"March 14, 2003",BIEBER SECURITIES INC.,"August 06, 2008",Bieber Securities Inc.
Securities & Options,"March 14, 2003",BIEBER SECURITIES INC.,"August 06, 2008",Bieber Securities Inc.
Investment Dealer,"March 14, 2003",BIEBER SECURITIES INC.,"August 06, 2008",Bieber Securities Inc.
Securities & Options,"March 14, 2003",BIEBER SECURITIES INC.,"August 06, 2008",Bieber Securities Inc.
Investment Dealer,"March 14, 2003",BIEBER SECURITIES INC.,"August 06, 2008",Bieber Securities Inc.
Securities & Options,"March 14, 2003",BIEBER SECURITIES INC.,"August 06, 2008",Bieber Securities Inc.
Investment Dealer,"September 28, 2009","BOLDER INVESTMENT PARTNERS, LTD.","October 22, 2010","Bolder Investment Partners, Ltd."
Investment Dealer,"March 14, 2003","BOLDER INVESTMENT PARTNERS, LTD.","September 28, 2009","Bolder Investment Partners, Ltd."
"Securities, Options & Managed Accounts","March 14, 2003","BOLDER INVESTMENT PARTNERS, LTD.","October 22, 2010","Bolder Investment Partners, Ltd."
Investment Dealer,"October 22, 2010","BOLDER INVESTMENT PARTNERS, LTD.","January 31, 2011","Bolder Investment Partners, Ltd."
"Securities, Options & Managed Accounts","October 22, 2010","BOLDER INVESTMENT PARTNERS, LTD.","January 31, 2011","Bolder Investment Partners, Ltd."
Investment Dealer,"September 28, 2009","BOLDER INVESTMENT PARTNERS, LTD.","October 22, 2010","Bolder Investment Partners, Ltd."
Investment Dealer (Securities and Underwriter),"March 14, 2003","BOLDER INVESTMENT PARTNERS, LTD.","September 28, 2009","Bolder Investment Partners, Ltd."
"Securities, Options & Managed Accounts","March 14, 2003","BOLDER INVESTMENT PARTNERS, LTD.","October 22, 2010","Bolder Investment Partners, Ltd."
Investment Dealer,"January 01, 2003","BOLDER INVESTMENT PARTNERS, LTD.","March 14, 2003","Bolder Investment Partners, Ltd."
Underwriter,"January 01, 2003","BOLDER INVESTMENT PARTNERS, LTD.","March 14, 2003","Bolder Investment Partners, Ltd."
Investment Dealer,"October 13, 2002","BOLDER INVESTMENT PARTNERS, LTD.","December 31, 2002","Bolder Investment Partners, Ltd."
Underwriter,"November 10, 2001","BOLDER INVESTMENT PARTNERS, LTD.","January 01, 2003","Bolder Investment Partners, Ltd."
Investment Dealer,"October 13, 2000","BOLDER INVESTMENT PARTNERS, LTD.","October 13, 2002","Bolder Investment Partners, Ltd."
Investment Dealer,"January 01, 2000","BOLDER INVESTMENT PARTNERS, LTD.","October 12, 2000","Bolder Investment Partners, Ltd."
Underwriter,"January 01, 2000","BOLDER INVESTMENT PARTNERS, LTD.","November 10, 2001","Bolder Investment Partners, Ltd."
Underwriter,"November 10, 1999","BOLDER INVESTMENT PARTNERS, LTD.","December 31, 1999","Bolder Investment Partners, Ltd."
Broker,"October 13, 1998","BOLDER INVESTMENT PARTNERS, LTD.","December 31, 1999","Bolder Investment Partners, Ltd."
Investment Dealer,"October 22, 2010","BOLDER INVESTMENT PARTNERS, LTD.","January 31, 2011","Bolder Investment Partners, Ltd."
"Securities, Options & Managed Accounts","October 22, 2010","BOLDER INVESTMENT PARTNERS, LTD.","January 31, 2011","Bolder Investment Partners, Ltd."
Investment Dealer,"September 28, 2009","BOLDER INVESTMENT PARTNERS, LTD.","October 22, 2010","Bolder Investment Partners, Ltd."
Investment Dealer,"September 22, 2005","BOLDER INVESTMENT PARTNERS, LTD.","September 28, 2009","Bolder Investment Partners, Ltd."
"Securities, Options & Managed Accounts","September 22, 2005","BOLDER INVESTMENT PARTNERS, LTD.","October 22, 2010","Bolder Investment Partners, Ltd."
Investment Dealer,"October 22, 2010","BOLDER INVESTMENT PARTNERS, LTD.","January 31, 2011","Bolder Investment Partners, Ltd."
"Securities, Options & Managed Accounts","October 22, 2010","BOLDER INVESTMENT PARTNERS, LTD.","January 31, 2011","Bolder Investment Partners, Ltd."
Investment Dealer,"September 28, 2009","BOLDER INVESTMENT PARTNERS, LTD.","October 22, 2010","Bolder Investment Partners, Ltd."
Investment Dealer,"August 11, 2005","BOLDER INVESTMENT PARTNERS, LTD.","September 28, 2009","Bolder Investment Partners, Ltd."
"Securities, Options & Managed Accounts","August 11, 2005","BOLDER INVESTMENT PARTNERS, LTD.","October 22, 2010","Bolder Investment Partners, Ltd."
Investment Dealer,"October 22, 2010","BOLDER INVESTMENT PARTNERS, LTD.","January 31, 2011","Bolder Investment Partners, Ltd."
"Securities, Options & Managed Accounts","October 22, 2010","BOLDER INVESTMENT PARTNERS, LTD.","January 31, 2011","Bolder Investment Partners, Ltd."
Investment Dealer,"September 28, 2009","BOLDER INVESTMENT PARTNERS, LTD.","October 22, 2010","Bolder Investment Partners, Ltd."
Investment Dealer,"July 11, 2006","BOLDER INVESTMENT PARTNERS, LTD.","September 28, 2009","Bolder Investment Partners, Ltd."
"Securities, Options & Managed Accounts","July 11, 2006","BOLDER INVESTMENT PARTNERS, LTD.","October 22, 2010","Bolder Investment Partners, Ltd."
Investment Dealer,"October 22, 2010","BOLDER INVESTMENT PARTNERS, LTD.","January 31, 2011","Bolder Investment Partners, Ltd."
"Securities, Options & Managed Accounts","October 22, 2010","BOLDER INVESTMENT PARTNERS, LTD.","January 31, 2011","Bolder Investment Partners, Ltd."
Investment Dealer,"October 22, 2010","BOLDER INVESTMENT PARTNERS, LTD.","November 08, 2010","Bolder Investment Partners, Ltd."
Investment Dealer,"September 28, 2009","BOLDER INVESTMENT PARTNERS, LTD.","October 22, 2010","Bolder Investment Partners, Ltd."
Broker - Securities,"June 19, 2009","BOLDER INVESTMENT PARTNERS, LTD.","September 28, 2009","Bolder Investment Partners, Ltd."
"Securities, Options & Managed Accounts","October 22, 2010","BOLDER INVESTMENT PARTNERS, LTD.","November 08, 2010","Bolder Investment Partners, Ltd."
"Securities, Options & Managed Accounts","June 19, 2009","BOLDER INVESTMENT PARTNERS, LTD.","October 22, 2010","Bolder Investment Partners, Ltd."
Investment Dealer,"October 22, 2010","BOLDER INVESTMENT PARTNERS, LTD.","November 08, 2010","Bolder Investment Partners, Ltd."
"Securities, Options & Managed Accounts","October 22, 2010","BOLDER INVESTMENT PARTNERS, LTD.","November 08, 2010","Bolder Investment Partners, Ltd."
Broker,"May 01, 1997","BRINK, HUDSON & LEFEVER LTD.","October 31, 1998","Brink, Hudson & Lefever Ltd."
Underwriter,"December 18, 1996","BRINK, HUDSON & LEFEVER LTD.","October 31, 1998","Brink, Hudson & Lefever Ltd."
Broker,"May 01, 1995","BRINK, HUDSON & LEFEVER LTD.","April 30, 1997","Brink, Hudson & Lefever Ltd."
Broker,"May 01, 1993","BRINK, HUDSON & LEFEVER LTD.","April 30, 1995","Brink, Hudson & Lefever Ltd."
Broker,"May 01, 1991","BRINK, HUDSON & LEFEVER LTD.","April 30, 1993","Brink, Hudson & Lefever Ltd."
Broker,"May 01, 1989","BRINK, HUDSON & LEFEVER LTD.","April 30, 1991","Brink, Hudson & Lefever Ltd."
Broker,"May 01, 1987","BRINK, HUDSON & LEFEVER LTD.","April 30, 1989","Brink, Hudson & Lefever Ltd."
Broker,"May 01, 1985","BRINK, HUDSON & LEFEVER LTD.","April 30, 1987","Brink, Hudson & Lefever Ltd."
Broker,"May 01, 1983","BRINK, HUDSON & LEFEVER LTD.","April 30, 1985","Brink, Hudson & Lefever Ltd."
Investment Dealer,"May 01, 1982","BRINK, HUDSON & LEFEVER LTD.","April 30, 1983","Brink, Hudson & Lefever Ltd."
Investment Dealer,"December 22, 1996",BZW CANADA LIMITED,"May 29, 1998",BZW Canada Limited
Underwriter,"December 22, 1996",BZW CANADA LIMITED,"May 29, 1998",BZW Canada Limited
Investment Dealer,"December 22, 1994",BZW CANADA LIMITED,"December 21, 1996",BZW Canada Limited
Investment Dealer,"June 01, 1994",BZW CANADA LIMITED,"December 21, 1994",BZW Canada Limited
Investment Dealer,"December 22, 1992",BZW CANADA LIMITED,"December 21, 1994",BZW Canada Limited
Investment Dealer,"December 22, 1990",BZW CANADA LIMITED,"December 21, 1992",BZW Canada Limited
Investment Dealer,"December 22, 1986",BZW CANADA LIMITED,"December 21, 1988",BZW Canada Limited
Exchange Contracts Dealer,"February 01, 1994",C.M. OLIVER & COMPANY LIMITED,"January 01, 1996",C.M. Oliver & Company Limited
Exchange Contracts Dealer,"February 01, 1992",C.M. OLIVER & COMPANY LIMITED,"January 31, 1994",C.M. Oliver & Company Limited
Exchange Contracts Dealer,"February 01, 1990",C.M. OLIVER & COMPANY LIMITED,"January 31, 1992",C.M. Oliver & Company Limited
Exchange Contracts Dealer,"February 01, 1988",C.M. OLIVER & COMPANY LIMITED,"January 31, 1990",C.M. Oliver & Company Limited
Exchange Contracts Dealer,"February 01, 1986",C.M. OLIVER & COMPANY LIMITED,"January 31, 1988",C.M. Oliver & Company Limited
Broker,"May 01, 1997",C.M. OLIVER & COMPANY LIMITED,"April 30, 1999",C.M. Oliver & Company Limited
Underwriter,"December 18, 1996",C.M. OLIVER & COMPANY LIMITED,"December 17, 1998",C.M. Oliver & Company Limited
Broker,"January 01, 1996",C.M. OLIVER & COMPANY LIMITED,"April 30, 1997",C.M. Oliver & Company Limited
Broker,"May 01, 1995",C.M. OLIVER & COMPANY LIMITED,"December 31, 1995",C.M. Oliver & Company Limited
Broker,"May 01, 1993",C.M. OLIVER & COMPANY LIMITED,"April 30, 1995",C.M. Oliver & Company Limited
Broker,"May 01, 1991",C.M. OLIVER & COMPANY LIMITED,"April 30, 1993",C.M. Oliver & Company Limited
Broker,"May 01, 1989",C.M. OLIVER & COMPANY LIMITED,"April 30, 1991",C.M. Oliver & Company Limited
Broker,"May 01, 1987",C.M. OLIVER & COMPANY LIMITED,"April 30, 1989",C.M. Oliver & Company Limited
Broker,"May 01, 1985",C.M. OLIVER & COMPANY LIMITED,"April 30, 1987",C.M. Oliver & Company Limited
Broker,"May 01, 1983",C.M. OLIVER & COMPANY LIMITED,"April 30, 1985",C.M. Oliver & Company Limited
Investment Dealer,"May 01, 1982",C.M. OLIVER & COMPANY LIMITED,"April 30, 1983",C.M. Oliver & Company Limited
Investment Dealer,"May 01, 1981",C.M. OLIVER & COMPANY LIMITED,"April 30, 1982",C.M. Oliver & Company Limited
Investment Dealer,"March 20, 2007",CALYON FINANCIAL CANADA INC./ SOCIETE FINANCIERE CALYON CANADA INC.,"January 02, 2008",Calyon Financial Canada Inc.
"Securities, Options & Futures Contracts and Futures Contract Options","March 20, 2007",CALYON FINANCIAL CANADA INC./ SOCIETE FINANCIERE CALYON CANADA INC.,"January 02, 2008",Calyon Financial Canada Inc.
Investment Dealer (Securities and Exchange Contracts),"March 20, 2007",CALYON FINANCIAL CANADA INC./ SOCIETE FINANCIERE CALYON CANADA INC.,"January 02, 2008",Calyon Financial Canada Inc.
"Securities, Options & Futures Contracts and Futures Contract Options","March 20, 2007",CALYON FINANCIAL CANADA INC./ SOCIETE FINANCIERE CALYON CANADA INC.,"January 02, 2008",Calyon Financial Canada Inc.
Investment Dealer (Securities) Dealer (Futures Commission Merchant) (Commodities),"March 20, 2007",CALYON FINANCIAL CANADA INC./ SOCIETE FINANCIERE CALYON CANADA INC.,"January 02, 2008",Calyon Financial Canada Inc.
"Securities, Options & Futures Contracts and Futures Contract Options","March 20, 2007",CALYON FINANCIAL CANADA INC./ SOCIETE FINANCIERE CALYON CANADA INC.,"January 02, 2008",Calyon Financial Canada Inc.
Investment Dealer,"March 20, 2007",CALYON FINANCIAL CANADA INC./ SOCIETE FINANCIERE CALYON CANADA INC.,"January 24, 2008",Calyon Financial Canada Inc.
"Securities, Options & Futures Contracts and Futures Contract Options","March 20, 2007",CALYON FINANCIAL CANADA INC./ SOCIETE FINANCIERE CALYON CANADA INC.,"January 24, 2008",Calyon Financial Canada Inc.
Investment Dealer,"March 20, 2007",CALYON FINANCIAL CANADA INC./ SOCIETE FINANCIERE CALYON CANADA INC.,"January 02, 2008",Calyon Financial Canada Inc.
"Securities, Options & Futures Contracts and Futures Contract Options","March 20, 2007",CALYON FINANCIAL CANADA INC./ SOCIETE FINANCIERE CALYON CANADA INC.,"January 02, 2008",Calyon Financial Canada Inc.
Investment Dealer,"March 20, 2007",CALYON FINANCIAL CANADA INC./ SOCIETE FINANCIERE CALYON CANADA INC.,"January 02, 2008",Calyon Financial Canada Inc.
"Securities, Options & Futures Contracts and Futures Contract Options","March 20, 2007",CALYON FINANCIAL CANADA INC./ SOCIETE FINANCIERE CALYON CANADA INC.,"January 02, 2008",Calyon Financial Canada Inc.
Investment Dealer,"March 20, 2007",CALYON FINANCIAL CANADA INC./ SOCIETE FINANCIERE CALYON CANADA INC.,"January 02, 2008",Calyon Financial Canada Inc.
"Securities, Managed Accounts & Futures Contracts and Futures Contract Options","March 20, 2007",CALYON FINANCIAL CANADA INC./ SOCIETE FINANCIERE CALYON CANADA INC.,"January 02, 2008",Calyon Financial Canada Inc.
Unrestricted Practice Dealer,"February 27, 2006",CALYON FINANCIAL CANADA INC./ SOCIETE FINANCIERE CALYON CANADA INC.,"January 02, 2008",Calyon Financial Canada Inc.
"Securities, Options & Futures Contracts and Futures Contract Options","February 27, 2006",CALYON FINANCIAL CANADA INC./ SOCIETE FINANCIERE CALYON CANADA INC.,"January 02, 2008",Calyon Financial Canada Inc.
Investment Dealer,"March 20, 2007",CALYON FINANCIAL CANADA INC./ SOCIETE FINANCIERE CALYON CANADA INC.,"January 02, 2008",Calyon Financial Canada Inc.
"Securities, Options & Futures Contracts and Futures Contract Options","March 20, 2007",CALYON FINANCIAL CANADA INC./ SOCIETE FINANCIERE CALYON CANADA INC.,"January 02, 2008",Calyon Financial Canada Inc.
Investment Dealer,"January 19, 2001",CANADA INVEST DIRECT INC.,"December 31, 2001",Canada Invest Direct Inc.
Broker,"May 29, 1989",CANADIAN INTERNATIONAL SECURITIES CORPORATION,"October 31, 1990",Canadian International
Investment Dealer,"January 01, 2000",CANADIAN WESTERN CAPITAL LIMITED,"February 16, 2000",Canadian Western Capital Limited
Underwriter,"January 01, 2000",CANADIAN WESTERN CAPITAL LIMITED,"February 16, 2000",Canadian Western Capital Limited
Underwriter,"August 14, 1998",CANADIAN WESTERN CAPITAL LIMITED,"December 31, 1999",Canadian Western Capital Limited
Broker,"July 05, 1998",CANADIAN WESTERN CAPITAL LIMITED,"December 31, 1999",Canadian Western Capital Limited
Underwriter,"September 24, 1996",CANADIAN WESTERN CAPITAL LIMITED,"August 13, 1998",Canadian Western Capital Limited
Broker,"July 06, 1996",CANADIAN WESTERN CAPITAL LIMITED,"July 04, 1998",Canadian Western Capital Limited
Broker,"July 05, 1996",CANADIAN WESTERN CAPITAL LIMITED,"July 05, 1996",Canadian Western Capital Limited
Broker,"July 05, 1994",CANADIAN WESTERN CAPITAL LIMITED,"July 04, 1996",Canadian Western Capital Limited
Broker,"July 05, 1992",CANADIAN WESTERN CAPITAL LIMITED,"July 04, 1994",Canadian Western Capital Limited
Broker,"July 05, 1990",CANADIAN WESTERN CAPITAL LIMITED,"July 04, 1992",Canadian Western Capital Limited
Broker,"July 05, 1988",CANADIAN WESTERN CAPITAL LIMITED,"July 04, 1990",Canadian Western Capital Limited
Broker,"July 05, 1986",CANADIAN WESTERN CAPITAL LIMITED,"July 04, 1988",Canadian Western Capital Limited
Broker,"July 05, 1984",CANADIAN WESTERN CAPITAL LIMITED,"July 04, 1986",Canadian Western Capital Limited
Securities Dealer,"October 01, 1989",CAPITAL GROUP SECURITIES LIMITED,"March 28, 1990",Capital Group Securities Limited
Securities Dealer,"October 01, 1987",CAPITAL GROUP SECURITIES LIMITED,"September 30, 1989",Capital Group Securities Limited
Securities Dealer,"March 27, 1987",CAPITAL GROUP SECURITIES LIMITED,"September 30, 1987",Capital Group Securities Limited
Securities Dealer,"March 01, 1985",CAPITAL GROUP SECURITIES LIMITED,"May 09, 1985",Capital Group Securities Limited
Broker,"March 28, 1990",CAPITAL GROUP SECURITIES LIMITED,"April 01, 1991",Capital Group Securities Limited
Broker,"October 01, 1985",CAPITAL GROUP SECURITIES LIMITED,"March 27, 1987",Capital Group Securities Limited
Investment Dealer,"March 14, 2003",CARTIER PARTNERS SECURITIES INC.,"June 02, 2004",Cartier Partners Securities Inc.
Securities & Options,"March 14, 2003",CARTIER PARTNERS SECURITIES INC.,"June 02, 2004",Cartier Partners Securities Inc.
Investment Dealer (Securities),"March 14, 2003",CARTIER PARTNERS SECURITIES INC.,"June 02, 2004",Cartier Partners Securities Inc.
Securities & Options,"March 14, 2003",CARTIER PARTNERS SECURITIES INC.,"June 02, 2004",Cartier Partners Securities Inc.
Investment Dealer,"January 01, 2003",CARTIER PARTNERS SECURITIES INC.,"March 14, 2003",Cartier Partners Securities Inc.
Investment Dealer,"January 01, 2002",CARTIER PARTNERS SECURITIES INC.,"January 01, 2003",Cartier Partners Securities Inc.
Investment Dealer,"October 01, 2001",CARTIER PARTNERS SECURITIES INC.,"December 31, 2001",Cartier Partners Securities Inc.
Investment Dealer,"March 14, 2003",CARTIER PARTNERS SECURITIES INC.,"June 02, 2004",Cartier Partners Securities Inc.
Securities & Options,"March 14, 2003",CARTIER PARTNERS SECURITIES INC.,"June 02, 2004",Cartier Partners Securities Inc.
Investment Dealer,"March 14, 2003",CARTIER PARTNERS SECURITIES INC.,"June 02, 2004",Cartier Partners Securities Inc.
Securities & Options,"March 14, 2003",CARTIER PARTNERS SECURITIES INC.,"June 02, 2004",Cartier Partners Securities Inc.
Investment Dealer,"March 14, 2003",CARTIER PARTNERS SECURITIES INC.,"June 02, 2004",Cartier Partners Securities Inc.
Securities & Options,"March 14, 2003",CARTIER PARTNERS SECURITIES INC.,"June 02, 2004",Cartier Partners Securities Inc.
Broker,"March 14, 2003",CARTIER PARTNERS SECURITIES INC.,"June 02, 2004",Cartier Partners Securities Inc.
Investment Dealer,"March 14, 2003",CARTIER PARTNERS SECURITIES INC.,"June 02, 2004",Cartier Partners Securities Inc.
Securities & Options,"March 14, 2003",CARTIER PARTNERS SECURITIES INC.,"June 02, 2004",Cartier Partners Securities Inc.
Investment Dealer,"March 14, 2003",CARTIER PARTNERS SECURITIES INC.,"June 23, 2004",Cartier Partners Securities Inc.
Securities & Options,"March 14, 2003",CARTIER PARTNERS SECURITIES INC.,"June 23, 2004",Cartier Partners Securities Inc.
Investment Dealer,"March 14, 2003",CARTIER PARTNERS SECURITIES INC.,"June 02, 2004",Cartier Partners Securities Inc.
Securities & Options,"March 14, 2003",CARTIER PARTNERS SECURITIES INC.,"June 02, 2004",Cartier Partners Securities Inc.
Broker - Securities,"March 14, 2003",CARTIER PARTNERS SECURITIES INC.,"June 02, 2004",Cartier Partners Securities Inc.
Securities & Options,"March 14, 2003",CARTIER PARTNERS SECURITIES INC.,"June 02, 2004",Cartier Partners Securities Inc.
Investment Dealer,"February 19, 1998",CHAMBERS WRIGHT SECURITIES INC.,"June 28, 1999",Chambers Wright Securities Inc.
Investment Dealer,"February 19, 1996",CHAMBERS WRIGHT SECURITIES INC.,"February 18, 1998",Chambers Wright Securities Inc.
Investment Dealer,"January 12, 2002","CHARLES SCHWAB CANADA, CO.","May 01, 2002","Charles Schwab Canada, Co."
Investment Dealer,"January 12, 2000","CHARLES SCHWAB CANADA, CO.","January 12, 2002","Charles Schwab Canada, Co."
Investment Dealer,"February 16, 1999","CHARLES SCHWAB CANADA, CO.","January 11, 2000","Charles Schwab Canada, Co."
Investment Dealer,"March 14, 2003",CIBC FINANCIAL PLANNING INC. / PLANIFICATION FINANCIERE CIBC INC.,"January 01, 2005",CIBC Financial Planning Inc.
Securities & Managed Accounts,"March 14, 2003",CIBC FINANCIAL PLANNING INC. / PLANIFICATION FINANCIERE CIBC INC.,"January 01, 2005",CIBC Financial Planning Inc.
Investment Dealer (Securities),"March 14, 2003",CIBC FINANCIAL PLANNING INC. / PLANIFICATION FINANCIERE CIBC INC.,"January 01, 2005",CIBC Financial Planning Inc.
Securities & Managed Accounts,"March 14, 2003",CIBC FINANCIAL PLANNING INC. / PLANIFICATION FINANCIERE CIBC INC.,"January 01, 2005",CIBC Financial Planning Inc.
Investment Dealer,"January 01, 2003",CIBC FINANCIAL PLANNING INC. / PLANIFICATION FINANCIERE CIBC INC.,"March 14, 2003",CIBC Financial Planning Inc.
Investment Dealer,"May 15, 2002",CIBC FINANCIAL PLANNING INC. / PLANIFICATION FINANCIERE CIBC INC.,"December 31, 2002",CIBC Financial Planning Inc.
Investment Dealer,"May 15, 2000",CIBC FINANCIAL PLANNING INC. / PLANIFICATION FINANCIERE CIBC INC.,"May 14, 2002",CIBC Financial Planning Inc.
Investment Dealer,"May 15, 1998",CIBC FINANCIAL PLANNING INC. / PLANIFICATION FINANCIERE CIBC INC.,"May 14, 2000",CIBC Financial Planning Inc.
Investment Dealer,"March 14, 2003",CIBC FINANCIAL PLANNING INC. / PLANIFICATION FINANCIERE CIBC INC.,"January 01, 2005",CIBC Financial Planning Inc.
Securities & Managed Accounts,"March 14, 2003",CIBC FINANCIAL PLANNING INC. / PLANIFICATION FINANCIERE CIBC INC.,"January 01, 2005",CIBC Financial Planning Inc.
Investment Dealer,"March 14, 2003",CIBC FINANCIAL PLANNING INC. / PLANIFICATION FINANCIERE CIBC INC.,"January 01, 2005",CIBC Financial Planning Inc.
Securities & Managed Accounts,"March 14, 2003",CIBC FINANCIAL PLANNING INC. / PLANIFICATION FINANCIERE CIBC INC.,"January 01, 2005",CIBC Financial Planning Inc.
Investment Dealer & Investment Counsel,"October 23, 2003",CIBC FINANCIAL PLANNING INC. / PLANIFICATION FINANCIERE CIBC INC.,"December 02, 2003",CIBC Financial Planning Inc.
Investment Dealer,"March 14, 2003",CIBC FINANCIAL PLANNING INC. / PLANIFICATION FINANCIERE CIBC INC.,"January 01, 2005",CIBC Financial Planning Inc.
Investment Counsel,"March 14, 2003",CIBC FINANCIAL PLANNING INC. / PLANIFICATION FINANCIERE CIBC INC.,"December 02, 2003",CIBC Financial Planning Inc.
Securities & Managed Accounts,"March 14, 2003",CIBC FINANCIAL PLANNING INC. / PLANIFICATION FINANCIERE CIBC INC.,"January 01, 2005",CIBC Financial Planning Inc.
Investment Dealer,"April 15, 2004",CIBC FINANCIAL PLANNING INC. / PLANIFICATION FINANCIERE CIBC INC.,"December 31, 2004",CIBC Financial Planning Inc.
Securities & Managed Accounts,"April 15, 2004",CIBC FINANCIAL PLANNING INC. / PLANIFICATION FINANCIERE CIBC INC.,"December 31, 2004",CIBC Financial Planning Inc.
Investment Dealer,"March 14, 2003",CIBC FINANCIAL PLANNING INC. / PLANIFICATION FINANCIERE CIBC INC.,"January 01, 2005",CIBC Financial Planning Inc.
Securities & Managed Accounts,"March 14, 2003",CIBC FINANCIAL PLANNING INC. / PLANIFICATION FINANCIERE CIBC INC.,"January 01, 2005",CIBC Financial Planning Inc.
Investment Dealer,"March 14, 2003",CIBC FINANCIAL PLANNING INC. / PLANIFICATION FINANCIERE CIBC INC.,"January 01, 2005",CIBC Financial Planning Inc.
Securities & Managed Accounts,"March 14, 2003",CIBC FINANCIAL PLANNING INC. / PLANIFICATION FINANCIERE CIBC INC.,"January 01, 2005",CIBC Financial Planning Inc.
Unrestricted Practice Dealer (Introducing Broker),"December 21, 2004",CIBC FINANCIAL PLANNING INC. / PLANIFICATION FINANCIERE CIBC INC.,"January 01, 2005",CIBC Financial Planning Inc.
Securities & Managed Accounts,"December 21, 2004",CIBC FINANCIAL PLANNING INC. / PLANIFICATION FINANCIERE CIBC INC.,"January 01, 2005",CIBC Financial Planning Inc.
Unrestricted Practice Dealer (Introducing Broker),"October 17, 2005",CIBC FINANCIAL PLANNING INC. / PLANIFICATION FINANCIERE CIBC INC.,"November 30, 2005",CIBC Financial Planning Inc.
Securities & Managed Accounts,"October 17, 2005",CIBC FINANCIAL PLANNING INC. / PLANIFICATION FINANCIERE CIBC INC.,"November 30, 2005",CIBC Financial Planning Inc.
Investment Dealer,"March 14, 2003",CIBC FINANCIAL PLANNING INC. / PLANIFICATION FINANCIERE CIBC INC.,"January 01, 2005",CIBC Financial Planning Inc.
Securities & Managed Accounts,"March 14, 2003",CIBC FINANCIAL PLANNING INC. / PLANIFICATION FINANCIERE CIBC INC.,"January 01, 2005",CIBC Financial Planning Inc.
Broker - Securities,"March 14, 2003",CIBC FINANCIAL PLANNING INC. / PLANIFICATION FINANCIERE CIBC INC.,"February 15, 2007",CIBC Financial Planning Inc.
Securities & Managed Accounts,"March 14, 2003",CIBC FINANCIAL PLANNING INC. / PLANIFICATION FINANCIERE CIBC INC.,"February 15, 2007",CIBC Financial Planning Inc.
Investment Dealer,"July 11, 2006",CLEARSIGHT WEALTH MANAGEMENT INC.,"November 30, 2006",Clearsight Wealth Management Inc.
Securities,"July 11, 2006",CLEARSIGHT WEALTH MANAGEMENT INC.,"November 30, 2006",Clearsight Wealth Management Inc.
Investment Dealer (Securities),"October 04, 2004",CLEARSIGHT WEALTH MANAGEMENT INC.,"November 30, 2006",Clearsight Wealth Management Inc.
Securities,"October 04, 2004",CLEARSIGHT WEALTH MANAGEMENT INC.,"November 30, 2006",Clearsight Wealth Management Inc.
Investment Dealer,"October 12, 2011",COMMISSION DIRECT INC.,"May 10, 2012",Commission Direct Inc.
Securities,"October 12, 2011",COMMISSION DIRECT INC.,"May 10, 2012",Commission Direct Inc.
Investment Dealer,"October 12, 2011",COMMISSION DIRECT INC.,"May 10, 2012",Commission Direct Inc.
Securities,"October 12, 2011",COMMISSION DIRECT INC.,"May 10, 2012",Commission Direct Inc.
Investment Dealer,"September 28, 2009",COMMISSION DIRECT INC.,"May 10, 2012",Commission Direct Inc.
Investment Dealer,"March 14, 2003",COMMISSION DIRECT INC.,"September 28, 2009",Commission Direct Inc.
Securities,"March 14, 2003",COMMISSION DIRECT INC.,"May 10, 2012",Commission Direct Inc.
Investment Dealer,"October 12, 2011",COMMISSION DIRECT INC.,"May 10, 2012",Commission Direct Inc.
Securities,"October 12, 2011",COMMISSION DIRECT INC.,"May 10, 2012",Commission Direct Inc.
Investment Dealer,"September 28, 2009",COMMISSION DIRECT INC.,"May 10, 2012",Commission Direct Inc.
Investment Dealer,"March 27, 2003",COMMISSION DIRECT INC.,"September 28, 2009",Commission Direct Inc.
Securities,"March 27, 2003",COMMISSION DIRECT INC.,"May 10, 2012",Commission Direct Inc.
Investment Dealer,"March 14, 2003",CARTIER PARTNERS SECURITIES INC.,"June 02, 2004",Courvie Securities Inc.
Securities & Options,"March 14, 2003",CARTIER PARTNERS SECURITIES INC.,"June 02, 2004",Courvie Securities Inc.
Investment Dealer (Securities),"March 14, 2003",CARTIER PARTNERS SECURITIES INC.,"June 02, 2004",Courvie Securities Inc.
Securities & Options,"March 14, 2003",CARTIER PARTNERS SECURITIES INC.,"June 02, 2004",Courvie Securities Inc.
Investment Dealer,"January 01, 2003",CARTIER PARTNERS SECURITIES INC.,"March 14, 2003",Courvie Securities Inc.
Investment Dealer,"January 01, 2002",CARTIER PARTNERS SECURITIES INC.,"January 01, 2003",Courvie Securities Inc.
Investment Dealer,"October 01, 2001",CARTIER PARTNERS SECURITIES INC.,"December 31, 2001",Courvie Securities Inc.
Investment Dealer,"March 14, 2003",CARTIER PARTNERS SECURITIES INC.,"June 02, 2004",Courvie Securities Inc.
Securities & Options,"March 14, 2003",CARTIER PARTNERS SECURITIES INC.,"June 02, 2004",Courvie Securities Inc.
Investment Dealer,"March 14, 2003",CARTIER PARTNERS SECURITIES INC.,"June 02, 2004",Courvie Securities Inc.
Securities & Options,"March 14, 2003",CARTIER PARTNERS SECURITIES INC.,"June 02, 2004",Courvie Securities Inc.
Investment Dealer,"March 14, 2003",CARTIER PARTNERS SECURITIES INC.,"June 02, 2004",Courvie Securities Inc.
Securities & Options,"March 14, 2003",CARTIER PARTNERS SECURITIES INC.,"June 02, 2004",Courvie Securities Inc.
Broker,"March 14, 2003",CARTIER PARTNERS SECURITIES INC.,"June 02, 2004",Courvie Securities Inc.
Investment Dealer,"March 14, 2003",CARTIER PARTNERS SECURITIES INC.,"June 02, 2004",Courvie Securities Inc.
Securities & Options,"March 14, 2003",CARTIER PARTNERS SECURITIES INC.,"June 02, 2004",Courvie Securities Inc.
Investment Dealer,"March 14, 2003",CARTIER PARTNERS SECURITIES INC.,"June 23, 2004",Courvie Securities Inc.
Securities & Options,"March 14, 2003",CARTIER PARTNERS SECURITIES INC.,"June 23, 2004",Courvie Securities Inc.
Investment Dealer,"March 14, 2003",CARTIER PARTNERS SECURITIES INC.,"June 02, 2004",Courvie Securities Inc.
Securities & Options,"March 14, 2003",CARTIER PARTNERS SECURITIES INC.,"June 02, 2004",Courvie Securities Inc.
Broker - Securities,"March 14, 2003",CARTIER PARTNERS SECURITIES INC.,"June 02, 2004",Courvie Securities Inc.
Securities & Options,"March 14, 2003",CARTIER PARTNERS SECURITIES INC.,"June 02, 2004",Courvie Securities Inc.
Investment Dealer,"December 12, 1991",CREDIFINANCE SECURITIES LIMITED,"April 05, 1993",Credifinance Securities Limited
Securities Dealer,"February 02, 1990",CT SECURITIES INC.,"September 01, 1989",CT Securities Inc.
Investment Dealer,"September 01, 1999",CT SECURITIES INC.,"May 20, 2000",CT Securities Inc.
Investment Dealer,"September 01, 1997",CT SECURITIES INC.,"August 31, 1999",CT Securities Inc.
Investment Dealer,"February 01, 1997",CT SECURITIES INC.,"August 31, 1997",CT Securities Inc.
Broker,"September 01, 1995",CT SECURITIES INC.,"February 01, 1997",CT Securities Inc.
Broker,"June 07, 1995",CT SECURITIES INC.,"August 31, 1995",CT Securities Inc.
Broker,"September 01, 1993",CT SECURITIES INC.,"June 06, 1995",CT Securities Inc.
Broker,"September 01, 1991",CT SECURITIES INC.,"August 31, 1993",CT Securities Inc.
Broker,"September 01, 1989",CT SECURITIES INC.,"August 31, 1991",CT Securities Inc.
Broker,"September 01, 1987",CT SECURITIES INC.,"August 31, 1989",CT Securities Inc.
Investment Dealer,"December 19, 1997",CT SECURITIES SERVICES INC.,"December 18, 1999",CT Securities Services Inc.
Broker,"February 20, 1997",CT SECURITIES SERVICES INC.,"February 02, 1997",CT Securities Services Inc.
Investment Dealer,"February 01, 1997",CT SECURITIES SERVICES INC.,"December 18, 1997",CT Securities Services Inc.
Broker,"December 19, 1995",CT SECURITIES SERVICES INC.,"February 01, 1997",CT Securities Services Inc.
Broker,"June 07, 1995",CT SECURITIES SERVICES INC.,"December 18, 1995",CT Securities Services Inc.
Broker,"December 19, 1993",CT SECURITIES SERVICES INC.,"June 06, 1995",CT Securities Services Inc.
Broker,"December 19, 1991",CT SECURITIES SERVICES INC.,"December 18, 1993",CT Securities Services Inc.
Broker,"December 19, 1989",CT SECURITIES SERVICES INC.,"December 18, 1991",CT Securities Services Inc.
Investment Dealer,"March 26, 1992",CWC CANADIAN WESTERN CAPITAL LTD.,"November 03, 1992",CWC Canadian Western Capital ltd.
Dealer (Futures Commission Merchant),"March 14, 2003",DAEX COMMODITIES INC.,"December 31, 2004",Daex Commodities Inc.
Futures Contracts and Futures Contract Options,"March 14, 2003",DAEX COMMODITIES INC.,"December 31, 2004",Daex Commodities Inc.
Investment Counsel,"December 21, 1998",DARIER HENTSCH (CANADA) INVESTMENT COUNSELLORS INC.,"December 20, 2000",Darier Hentsch (Canada) Inc.
Investment Counsel,"December 21, 1996",DARIER HENTSCH (CANADA) INVESTMENT COUNSELLORS INC.,"December 20, 1998",Darier Hentsch (Canada) Inc.
Investment Counsel,"December 21, 1994",DARIER HENTSCH (CANADA) INVESTMENT COUNSELLORS INC.,"December 20, 1996",Darier Hentsch (Canada) Inc.
Securities Dealer,"January 20, 1997",DAVREY SECURITIES INC.,"January 19, 1999",Davrey Securities Inc.
Exchange Contracts Dealer,"February 17, 1995",DAVREY SECURITIES INC.,"May 07, 1996",Davrey Securities Inc.
Broker,"May 07, 1996",DAVREY SECURITIES INC.,"November 05, 1996",Davrey Securities Inc.
Investment Dealer,"December 18, 1997",DEACON CAPITAL CORPORATION,"January 01, 1999",Deacon Capital Corporation
Investment Dealer,"February 01, 1997",DEACON CAPITAL CORPORATION,"December 17, 1997",Deacon Capital Corporation
Broker,"January 15, 1997",DEACON CAPITAL CORPORATION,"February 01, 1997",Deacon Capital Corporation
Underwriter,"January 15, 1997",DEACON CAPITAL CORPORATION,"January 01, 1999",Deacon Capital Corporation
Broker,"December 18, 1995",DEACON CAPITAL CORPORATION,"February 01, 1997",Deacon Capital Corporation
Exchange Contracts Dealer,"June 09, 1990",DEAN WITTER REYNOLDS (CANADA) INC.,"August 23, 1991",Dean Witter Reynolds (Canada) Inc.
Exchange Contracts Dealer,"February 07, 1989",DEAN WITTER REYNOLDS (CANADA) INC.,"June 08, 1990",Dean Witter Reynolds (Canada) Inc.
Exchange Contracts Dealer,"June 09, 1988",DEAN WITTER REYNOLDS (CANADA) INC.,"February 07, 1989",Dean Witter Reynolds (Canada) Inc.
Broker,"January 03, 1990",DEAN WITTER REYNOLDS (CANADA) INC.,"August 23, 1991",Dean Witter Reynolds (Canada) Inc.
Broker,"January 03, 1988",DEAN WITTER REYNOLDS (CANADA) INC.,"January 02, 1990",Dean Witter Reynolds (Canada) Inc.
Broker,"January 03, 1986",DEAN WITTER REYNOLDS (CANADA) INC.,"January 02, 1988",Dean Witter Reynolds (Canada) Inc.
Investment Dealer,"September 28, 2009",DEMERS VALEURS MOBILIERES INC. / DEMERS SECURITIES INC.,"July 05, 2010",Demers Securities Inc.
Derivatives Dealer,"September 28, 2009",DEMERS VALEURS MOBILIERES INC. / DEMERS SECURITIES INC.,"July 05, 2010",Demers Securities Inc.
Unrestricted Practice Dealer (Introducing Broker),"January 19, 2005",DEMERS VALEURS MOBILIERES INC. / DEMERS SECURITIES INC.,"September 28, 2009",Demers Securities Inc.
"Securities, Options & Managed Accounts","April 02, 2009",DEMERS VALEURS MOBILIERES INC. / DEMERS SECURITIES INC.,"July 05, 2010",Demers Securities Inc.
Securities & Options,"January 19, 2005",DEMERS VALEURS MOBILIERES INC. / DEMERS SECURITIES INC.,"April 02, 2009",Demers Securities Inc.
Securities Dealer,"June 29, 1996",DPM SECURITIES INC.,"June 01, 1997",DPM Securities Inc.
Securities Dealer,"March 08, 1995",DPM SECURITIES INC.,"June 28, 1996",DPM Securities Inc.
Securities Dealer,"June 29, 1994",DPM SECURITIES INC.,"March 08, 1995",DPM Securities Inc.
Investment Dealer,"September 09, 2000",DPM SECURITIES INC.,"September 08, 2002",DPM Securities Inc.
Investment Dealer,"January 01, 2000",DPM SECURITIES INC.,"September 08, 2000",DPM Securities Inc.
Broker,"September 09, 1998",DPM SECURITIES INC.,"December 31, 1999",DPM Securities Inc.
Broker,"June 02, 1997",DPM SECURITIES INC.,"September 08, 1998",DPM Securities Inc.
Broker,"July 01, 1982",BOND STREET INTERNATIONAL SECURITIES LTD.,"July 30, 1982",E-Bond Ltd.
Broker,"May 30, 1982",BOND STREET INTERNATIONAL SECURITIES LTD.,"June 30, 1982",E-Bond Ltd.
Broker,"May 23, 1982",BOND STREET INTERNATIONAL SECURITIES LTD.,"May 29, 1982",E-Bond Ltd.
Broker,"May 01, 1982",BOND STREET INTERNATIONAL SECURITIES LTD.,"May 15, 1982",E-Bond Ltd.
Broker,"May 01, 1981",BOND STREET INTERNATIONAL SECURITIES LTD.,"April 30, 1982",E-Bond Ltd.
Investment Dealer,"March 09, 2005",VALEURS MOBILIERES EVEREST INC. /EVEREST SECURITIES INC.,"December 12, 2006",Everest Securities Inc.
Securities & Managed Accounts,"August 17, 2006",VALEURS MOBILIERES EVEREST INC. /EVEREST SECURITIES INC.,"December 12, 2006",Everest Securities Inc.
Securities,"March 09, 2005",VALEURS MOBILIERES EVEREST INC. /EVEREST SECURITIES INC.,"August 17, 2006",Everest Securities Inc.
Investment Dealer,"December 21, 2006",VALEURS MOBILIERES EVEREST INC. /EVEREST SECURITIES INC.,"December 13, 2007",Everest Securities Inc.
Securities & Managed Accounts,"December 21, 2006",VALEURS MOBILIERES EVEREST INC. /EVEREST SECURITIES INC.,"December 13, 2007",Everest Securities Inc.
Unrestricted Practice Dealer,"December 16, 2004",VALEURS MOBILIERES EVEREST INC. /EVEREST SECURITIES INC.,"April 30, 2008",Everest Securities Inc.
Securities & Managed Accounts,"August 15, 2006",VALEURS MOBILIERES EVEREST INC. /EVEREST SECURITIES INC.,"April 30, 2008",Everest Securities Inc.
Securities,"December 16, 2004",VALEURS MOBILIERES EVEREST INC. /EVEREST SECURITIES INC.,"August 15, 2006",Everest Securities Inc.
Unrestricted Practice Dealer,"April 30, 2008",VALEURS MOBILIERES EVEREST INC. /EVEREST SECURITIES INC.,"June 17, 2008",Everest Securities Inc.
Securities & Managed Accounts,"April 30, 2008",VALEURS MOBILIERES EVEREST INC. /EVEREST SECURITIES INC.,"June 17, 2008",Everest Securities Inc.
Investment Dealer,"March 19, 2009",BROOKFIELD FINANCIAL CORP./CORP. BROOKFIELD FINANCIER,"September 28, 2009",F.C.G. Securities Corporation
Unrestricted Practice Dealer,"March 19, 2009",BROOKFIELD FINANCIAL CORP./CORP. BROOKFIELD FINANCIER,"September 28, 2009",F.C.G. Securities Corporation
Investment Dealer,"March 14, 2003",FIDELITY INTERMEDIARY SECURITIES COMPANY LIMITED/COMPAGNIE DE VALEURS MOBILIERES INTERMEDIAIRE FIDELITY LIMITEE,"December 23, 2003",Fidelity Intermediary Securities Company
Securities,"March 14, 2003",FIDELITY INTERMEDIARY SECURITIES COMPANY LIMITED/COMPAGNIE DE VALEURS MOBILIERES INTERMEDIAIRE FIDELITY LIMITEE,"December 23, 2003",Fidelity Intermediary Securities Company
Investment Dealer (Securities),"March 14, 2003",FIDELITY INTERMEDIARY SECURITIES COMPANY LIMITED/COMPAGNIE DE VALEURS MOBILIERES INTERMEDIAIRE FIDELITY LIMITEE,"December 23, 2003",Fidelity Intermediary Securities Company
Securities,"March 14, 2003",FIDELITY INTERMEDIARY SECURITIES COMPANY LIMITED/COMPAGNIE DE VALEURS MOBILIERES INTERMEDIAIRE FIDELITY LIMITEE,"December 23, 2003",Fidelity Intermediary Securities Company
Investment Dealer,"January 01, 2003",FIDELITY INTERMEDIARY SECURITIES COMPANY LIMITED/COMPAGNIE DE VALEURS MOBILIERES INTERMEDIAIRE FIDELITY LIMITEE,"March 14, 2003",Fidelity Intermediary Securities Company
Investment Dealer,"May 23, 2002",FIDELITY INTERMEDIARY SECURITIES COMPANY LIMITED/COMPAGNIE DE VALEURS MOBILIERES INTERMEDIAIRE FIDELITY LIMITEE,"January 01, 2003",Fidelity Intermediary Securities Company
Investment Dealer,"March 14, 2003",FIDELITY INTERMEDIARY SECURITIES COMPANY LIMITED/COMPAGNIE DE VALEURS MOBILIERES INTERMEDIAIRE FIDELITY LIMITEE,"December 18, 2003",Fidelity Intermediary Securities Company
Securities,"March 14, 2003",FIDELITY INTERMEDIARY SECURITIES COMPANY LIMITED/COMPAGNIE DE VALEURS MOBILIERES INTERMEDIAIRE FIDELITY LIMITEE,"December 18, 2003",Fidelity Intermediary Securities Company
Investment Dealer,"March 14, 2003",FIDELITY INTERMEDIARY SECURITIES COMPANY LIMITED/COMPAGNIE DE VALEURS MOBILIERES INTERMEDIAIRE FIDELITY LIMITEE,"December 01, 2003",Fidelity Intermediary Securities Company
Securities,"March 14, 2003",FIDELITY INTERMEDIARY SECURITIES COMPANY LIMITED/COMPAGNIE DE VALEURS MOBILIERES INTERMEDIAIRE FIDELITY LIMITEE,"December 01, 2003",Fidelity Intermediary Securities Company
Investment Dealer,"March 14, 2003",FIDELITY INTERMEDIARY SECURITIES COMPANY LIMITED/COMPAGNIE DE VALEURS MOBILIERES INTERMEDIAIRE FIDELITY LIMITEE,"December 17, 2003",Fidelity Intermediary Securities Company
Securities,"March 14, 2003",FIDELITY INTERMEDIARY SECURITIES COMPANY LIMITED/COMPAGNIE DE VALEURS MOBILIERES INTERMEDIAIRE FIDELITY LIMITEE,"December 17, 2003",Fidelity Intermediary Securities Company
Investment Dealer,"March 14, 2003",FIDELITY INTERMEDIARY SECURITIES COMPANY LIMITED/COMPAGNIE DE VALEURS MOBILIERES INTERMEDIAIRE FIDELITY LIMITEE,"December 04, 2003",Fidelity Intermediary Securities Company
Securities,"March 14, 2003",FIDELITY INTERMEDIARY SECURITIES COMPANY LIMITED/COMPAGNIE DE VALEURS MOBILIERES INTERMEDIAIRE FIDELITY LIMITEE,"December 04, 2003",Fidelity Intermediary Securities Company
Investment Dealer,"March 14, 2003",FIDELITY INTERMEDIARY SECURITIES COMPANY LIMITED/COMPAGNIE DE VALEURS MOBILIERES INTERMEDIAIRE FIDELITY LIMITEE,"December 11, 2003",Fidelity Intermediary Securities Company
Securities,"March 14, 2003",FIDELITY INTERMEDIARY SECURITIES COMPANY LIMITED/COMPAGNIE DE VALEURS MOBILIERES INTERMEDIAIRE FIDELITY LIMITEE,"December 11, 2003",Fidelity Intermediary Securities Company
Investment Dealer,"March 14, 2003",FIDELITY INTERMEDIARY SECURITIES COMPANY LIMITED/COMPAGNIE DE VALEURS MOBILIERES INTERMEDIAIRE FIDELITY LIMITEE,"November 27, 2003",Fidelity Intermediary Securities Company
Securities,"March 14, 2003",FIDELITY INTERMEDIARY SECURITIES COMPANY LIMITED/COMPAGNIE DE VALEURS MOBILIERES INTERMEDIAIRE FIDELITY LIMITEE,"November 27, 2003",Fidelity Intermediary Securities Company
Investment Dealer,"March 14, 2003",FIDELITY INTERMEDIARY SECURITIES COMPANY LIMITED/COMPAGNIE DE VALEURS MOBILIERES INTERMEDIAIRE FIDELITY LIMITEE,"December 29, 2003",Fidelity Intermediary Securities Company
Securities,"March 14, 2003",FIDELITY INTERMEDIARY SECURITIES COMPANY LIMITED/COMPAGNIE DE VALEURS MOBILIERES INTERMEDIAIRE FIDELITY LIMITEE,"December 29, 2003",Fidelity Intermediary Securities Company
Investment Dealer,"March 14, 2003",FIDELITY INTERMEDIARY SECURITIES COMPANY LIMITED/COMPAGNIE DE VALEURS MOBILIERES INTERMEDIAIRE FIDELITY LIMITEE,"December 17, 2003",Fidelity Intermediary Securities Company
Securities,"March 14, 2003",FIDELITY INTERMEDIARY SECURITIES COMPANY LIMITED/COMPAGNIE DE VALEURS MOBILIERES INTERMEDIAIRE FIDELITY LIMITEE,"December 17, 2003",Fidelity Intermediary Securities Company
Broker - Securities,"March 14, 2003",FIDELITY INTERMEDIARY SECURITIES COMPANY LIMITED/COMPAGNIE DE VALEURS MOBILIERES INTERMEDIAIRE FIDELITY LIMITEE,"December 08, 2003",Fidelity Intermediary Securities Company
Securities,"March 14, 2003",FIDELITY INTERMEDIARY SECURITIES COMPANY LIMITED/COMPAGNIE DE VALEURS MOBILIERES INTERMEDIAIRE FIDELITY LIMITEE,"December 08, 2003",Fidelity Intermediary Securities Company
Investment Dealer,"March 14, 2003",FIRST ASSET ADVISORY SERVICES INC. / SERVICES CONSEILS FIRST ASSET ,"December 15, 2006",First Asset Advisory Services Inc.
Securities & Managed Accounts,"March 14, 2003",FIRST ASSET ADVISORY SERVICES INC. / SERVICES CONSEILS FIRST ASSET ,"December 15, 2006",First Asset Advisory Services Inc.
Investment Dealer (Securities),"March 14, 2003",FIRST ASSET ADVISORY SERVICES INC. / SERVICES CONSEILS FIRST ASSET ,"December 15, 2006",First Asset Advisory Services Inc.
Securities & Managed Accounts,"March 14, 2003",FIRST ASSET ADVISORY SERVICES INC. / SERVICES CONSEILS FIRST ASSET ,"December 15, 2006",First Asset Advisory Services Inc.
Investment Dealer,"January 01, 2003",FIRST ASSET ADVISORY SERVICES INC. / SERVICES CONSEILS FIRST ASSET ,"March 14, 2003",First Asset Advisory Services Inc.
Investment Dealer,"January 01, 2002",FIRST ASSET ADVISORY SERVICES INC. / SERVICES CONSEILS FIRST ASSET ,"January 01, 2003",First Asset Advisory Services Inc.
Investment Dealer,"June 27, 2001",FIRST ASSET ADVISORY SERVICES INC. / SERVICES CONSEILS FIRST ASSET ,"January 01, 2002",First Asset Advisory Services Inc.
Investment Dealer,"March 14, 2003",FIRST ASSET ADVISORY SERVICES INC. / SERVICES CONSEILS FIRST ASSET ,"December 14, 2006",First Asset Advisory Services Inc.
Securities & Managed Accounts,"March 14, 2003",FIRST ASSET ADVISORY SERVICES INC. / SERVICES CONSEILS FIRST ASSET ,"December 14, 2006",First Asset Advisory Services Inc.
Investment Dealer,"March 14, 2003",FIRST ASSET ADVISORY SERVICES INC. / SERVICES CONSEILS FIRST ASSET ,"December 11, 2006",First Asset Advisory Services Inc.
Securities & Managed Accounts,"March 14, 2003",FIRST ASSET ADVISORY SERVICES INC. / SERVICES CONSEILS FIRST ASSET ,"December 11, 2006",First Asset Advisory Services Inc.
Investment Dealer,"March 14, 2003",FIRST ASSET ADVISORY SERVICES INC. / SERVICES CONSEILS FIRST ASSET ,"December 15, 2006",First Asset Advisory Services Inc.
Securities & Managed Accounts,"March 14, 2003",FIRST ASSET ADVISORY SERVICES INC. / SERVICES CONSEILS FIRST ASSET ,"December 15, 2006",First Asset Advisory Services Inc.
Broker,"March 14, 2003",FIRST ASSET ADVISORY SERVICES INC. / SERVICES CONSEILS FIRST ASSET ,"December 19, 2006",First Asset Advisory Services Inc.
Investment Dealer,"March 14, 2003",FIRST ASSET ADVISORY SERVICES INC. / SERVICES CONSEILS FIRST ASSET ,"December 19, 2006",First Asset Advisory Services Inc.
Securities & Managed Accounts,"March 14, 2003",FIRST ASSET ADVISORY SERVICES INC. / SERVICES CONSEILS FIRST ASSET ,"December 19, 2006",First Asset Advisory Services Inc.
Investment Dealer,"March 14, 2003",FIRST ASSET ADVISORY SERVICES INC. / SERVICES CONSEILS FIRST ASSET ,"December 11, 2006",First Asset Advisory Services Inc.
Securities & Managed Accounts,"March 14, 2003",FIRST ASSET ADVISORY SERVICES INC. / SERVICES CONSEILS FIRST ASSET ,"December 11, 2006",First Asset Advisory Services Inc.
Unrestricted Practice Dealer (Introducing Broker),"December 21, 2004",FIRST ASSET ADVISORY SERVICES INC. / SERVICES CONSEILS FIRST ASSET ,"December 15, 2006",First Asset Advisory Services Inc.
Securities,"December 21, 2004",FIRST ASSET ADVISORY SERVICES INC. / SERVICES CONSEILS FIRST ASSET ,"December 15, 2006",First Asset Advisory Services Inc.
Investment Dealer,"March 14, 2003",FIRST ASSET ADVISORY SERVICES INC. / SERVICES CONSEILS FIRST ASSET ,"December 21, 2006",First Asset Advisory Services Inc.
Securities & Managed Accounts,"March 14, 2003",FIRST ASSET ADVISORY SERVICES INC. / SERVICES CONSEILS FIRST ASSET ,"December 21, 2006",First Asset Advisory Services Inc.
Investment Dealer,"December 21, 2006",FIRST ASSET ADVISORY SERVICES INC. / SERVICES CONSEILS FIRST ASSET ,"December 27, 2006",First Asset Advisory Services Inc.
Securities & Managed Accounts,"December 21, 2006",FIRST ASSET ADVISORY SERVICES INC. / SERVICES CONSEILS FIRST ASSET ,"December 27, 2006",First Asset Advisory Services Inc.
Investment Dealer,"September 28, 2009",FIRST CANADA CAPITAL PARTNERS INC.,"January 19, 2011",First Canada Capital Partners Inc.
Investment Dealer,"March 23, 2007",FIRST CANADA CAPITAL PARTNERS INC.,"September 28, 2009",First Canada Capital Partners Inc.
Securities & Options,"March 23, 2007",FIRST CANADA CAPITAL PARTNERS INC.,"January 19, 2011",First Canada Capital Partners Inc.
Investment Dealer,"January 19, 2011",FIRST CANADA CAPITAL PARTNERS INC.,"November 24, 2011",First Canada Capital Partners Inc.
Securities & Options,"January 19, 2011",FIRST CANADA CAPITAL PARTNERS INC.,"November 24, 2011",First Canada Capital Partners Inc.
Investment Dealer,"September 28, 2009",FIRST CANADA CAPITAL PARTNERS INC.,"January 19, 2011",First Canada Capital Partners Inc.
Investment Dealer (Securities and Underwriter),"April 29, 2008",FIRST CANADA CAPITAL PARTNERS INC.,"September 28, 2009",First Canada Capital Partners Inc.
Investment Dealer (Securities),"May 12, 2005",FIRST CANADA CAPITAL PARTNERS INC.,"May 07, 2008",First Canada Capital Partners Inc.
Securities & Options,"May 12, 2005",FIRST CANADA CAPITAL PARTNERS INC.,"January 19, 2011",First Canada Capital Partners Inc.
Investment Dealer,"January 19, 2011",FIRST CANADA CAPITAL PARTNERS INC.,"November 24, 2011",First Canada Capital Partners Inc.
Securities & Options,"January 19, 2011",FIRST CANADA CAPITAL PARTNERS INC.,"November 24, 2011",First Canada Capital Partners Inc.
Investment Dealer,"September 28, 2009",FIRST CANADA CAPITAL PARTNERS INC.,"January 19, 2011",First Canada Capital Partners Inc.
Investment Dealer,"June 05, 2008",FIRST CANADA CAPITAL PARTNERS INC.,"September 28, 2009",First Canada Capital Partners Inc.
Securities & Options,"June 05, 2008",FIRST CANADA CAPITAL PARTNERS INC.,"January 19, 2011",First Canada Capital Partners Inc.
Investment Dealer,"January 19, 2011",FIRST CANADA CAPITAL PARTNERS INC.,"November 24, 2011",First Canada Capital Partners Inc.
Securities & Options,"January 19, 2011",FIRST CANADA CAPITAL PARTNERS INC.,"November 24, 2011",First Canada Capital Partners Inc.
Investment Dealer,"August 29, 2001",FIRST DELTA SECURITIES INC.,"December 31, 2001",First Delta Securities Inc.
Investment Dealer,"August 29, 1999",FIRST DELTA SECURITIES INC.,"August 29, 2001",First Delta Securities Inc.
Investment Dealer,"August 29, 1997",FIRST DELTA SECURITIES INC.,"August 28, 1999",First Delta Securities Inc.
Underwriter,"August 29, 1997",FIRST DELTA SECURITIES INC.,"August 28, 1999",First Delta Securities Inc.
Securities Dealer,"December 08, 1997",FORTUNE FINANCIAL CORPORATION,"July 24, 1999",Fortune Financial Corporation
Securities Dealer,"July 24, 1997",FORTUNE FINANCIAL CORPORATION,"July 24, 1999",Fortune Financial Corporation
Securities Dealer,"July 22, 1995",FORTUNE FINANCIAL CORPORATION,"July 21, 1997",Fortune Financial Corporation
Securities Dealer,"July 22, 1993",FORTUNE FINANCIAL CORPORATION,"July 21, 1995",Fortune Financial Corporation
Securities Dealer,"June 09, 1993",FORTUNE FINANCIAL CORPORATION,"July 21, 1993",Fortune Financial Corporation
Securities Dealer,"February 01, 1993",FORTUNE FINANCIAL CORPORATION,"June 09, 1993",Fortune Financial Corporation
Securities Dealer,"July 22, 1991",FORTUNE FINANCIAL CORPORATION,"February 01, 1993",Fortune Financial Corporation
Investment Dealer,"March 01, 2007",GATEWAY SECURITIES INC.,"March 20, 2009",Gateway Securities Inc.
"Securities, Options & Futures Contracts and Futures Contract Options","March 01, 2007",GATEWAY SECURITIES INC.,"March 20, 2009",Gateway Securities Inc.
Investment Dealer,"March 20, 2009",GATEWAY SECURITIES INC.,"January 14, 2011",Gateway Securities Inc.
"Securities, Options & Futures Contracts and Futures Contract Options","March 20, 2009",GATEWAY SECURITIES INC.,"January 14, 2011",Gateway Securities Inc.
Investment Dealer (Securities and Exchange Contracts and Underwriter),"January 31, 2007",GATEWAY SECURITIES INC.,"March 20, 2009",Gateway Securities Inc.
"Securities, Options & Futures Contracts and Futures Contract Options","January 31, 2007",GATEWAY SECURITIES INC.,"March 20, 2009",Gateway Securities Inc.
Investment Dealer (Securities and Exchange Contracts and Underwriter),"March 20, 2009",GATEWAY SECURITIES INC.,"January 14, 2011",Gateway Securities Inc.
"Securities, Options & Futures Contracts and Futures Contract Options","March 20, 2009",GATEWAY SECURITIES INC.,"January 14, 2011",Gateway Securities Inc.
Investment Dealer,"September 28, 2009",GATEWAY SECURITIES INC.,"October 19, 2009",Gateway Securities Inc.
Investment Dealer,"March 01, 2007",GATEWAY SECURITIES INC.,"September 28, 2009",Gateway Securities Inc.
"Securities, Options & Futures Contracts and Futures Contract Options","March 01, 2007",GATEWAY SECURITIES INC.,"October 19, 2009",Gateway Securities Inc.
Investment Dealer,"October 19, 2009",GATEWAY SECURITIES INC.,"January 14, 2011",Gateway Securities Inc.
"Securities, Options & Futures Contracts and Futures Contract Options","October 19, 2009",GATEWAY SECURITIES INC.,"January 14, 2011",Gateway Securities Inc.
Investment Dealer,"May 10, 2010",GENUITY CAPITAL MARKETS/MARCHES DES CAPITAUX GENUITY,"May 11, 2010",Genuity Capital Markets
Investment Dealer,"September 28, 2009",GENUITY CAPITAL MARKETS/MARCHES DES CAPITAUX GENUITY,"May 10, 2010",Genuity Capital Markets
Investment Dealer,"November 08, 2004",GENUITY CAPITAL MARKETS/MARCHES DES CAPITAUX GENUITY,"September 28, 2009",Genuity Capital Markets
Securities,"May 10, 2010",GENUITY CAPITAL MARKETS/MARCHES DES CAPITAUX GENUITY,"May 11, 2010",Genuity Capital Markets
Securities,"November 08, 2004",GENUITY CAPITAL MARKETS/MARCHES DES CAPITAUX GENUITY,"May 10, 2010",Genuity Capital Markets
Investment Dealer,"May 10, 2010",GENUITY CAPITAL MARKETS/MARCHES DES CAPITAUX GENUITY,"May 10, 2010",Genuity Capital Markets
Investment Dealer,"May 10, 2010",GENUITY CAPITAL MARKETS/MARCHES DES CAPITAUX GENUITY,"June 02, 2010",Genuity Capital Markets
Securities,"May 10, 2010",GENUITY CAPITAL MARKETS/MARCHES DES CAPITAUX GENUITY,"June 02, 2010",Genuity Capital Markets
Securities,"May 10, 2010",GENUITY CAPITAL MARKETS/MARCHES DES CAPITAUX GENUITY,"May 10, 2010",Genuity Capital Markets
Investment Dealer,"May 10, 2010",GENUITY CAPITAL MARKETS/MARCHES DES CAPITAUX GENUITY,"May 11, 2010",Genuity Capital Markets
Investment Dealer,"September 28, 2009",GENUITY CAPITAL MARKETS/MARCHES DES CAPITAUX GENUITY,"May 10, 2010",Genuity Capital Markets
Investment Dealer (Securities and Underwriter),"November 08, 2004",GENUITY CAPITAL MARKETS/MARCHES DES CAPITAUX GENUITY,"September 28, 2009",Genuity Capital Markets
Securities,"May 10, 2010",GENUITY CAPITAL MARKETS/MARCHES DES CAPITAUX GENUITY,"May 11, 2010",Genuity Capital Markets
Securities,"November 08, 2004",GENUITY CAPITAL MARKETS/MARCHES DES CAPITAUX GENUITY,"May 10, 2010",Genuity Capital Markets
Investment Dealer,"May 10, 2010",GENUITY CAPITAL MARKETS/MARCHES DES CAPITAUX GENUITY,"May 10, 2010",Genuity Capital Markets
Investment Dealer,"May 10, 2010",GENUITY CAPITAL MARKETS/MARCHES DES CAPITAUX GENUITY,"June 02, 2010",Genuity Capital Markets
Securities,"May 10, 2010",GENUITY CAPITAL MARKETS/MARCHES DES CAPITAUX GENUITY,"June 02, 2010",Genuity Capital Markets
Securities,"May 10, 2010",GENUITY CAPITAL MARKETS/MARCHES DES CAPITAUX GENUITY,"May 10, 2010",Genuity Capital Markets
Investment Dealer,"May 10, 2010",GENUITY CAPITAL MARKETS/MARCHES DES CAPITAUX GENUITY,"May 11, 2010",Genuity Capital Markets
Investment Dealer,"September 28, 2009",GENUITY CAPITAL MARKETS/MARCHES DES CAPITAUX GENUITY,"May 10, 2010",Genuity Capital Markets
Investment Dealer,"November 09, 2004",GENUITY CAPITAL MARKETS/MARCHES DES CAPITAUX GENUITY,"September 28, 2009",Genuity Capital Markets
Securities,"May 10, 2010",GENUITY CAPITAL MARKETS/MARCHES DES CAPITAUX GENUITY,"May 11, 2010",Genuity Capital Markets
Securities,"November 09, 2004",GENUITY CAPITAL MARKETS/MARCHES DES CAPITAUX GENUITY,"May 10, 2010",Genuity Capital Markets
Securities & Managed Accounts,"November 09, 2004",GENUITY CAPITAL MARKETS/MARCHES DES CAPITAUX GENUITY,"November 09, 2004",Genuity Capital Markets
Investment Dealer,"May 10, 2010",GENUITY CAPITAL MARKETS/MARCHES DES CAPITAUX GENUITY,"May 10, 2010",Genuity Capital Markets
Investment Dealer,"May 10, 2010",GENUITY CAPITAL MARKETS/MARCHES DES CAPITAUX GENUITY,"June 02, 2010",Genuity Capital Markets
Securities,"May 10, 2010",GENUITY CAPITAL MARKETS/MARCHES DES CAPITAUX GENUITY,"June 02, 2010",Genuity Capital Markets
Securities,"May 10, 2010",GENUITY CAPITAL MARKETS/MARCHES DES CAPITAUX GENUITY,"May 10, 2010",Genuity Capital Markets
Investment Dealer,"May 10, 2010",GENUITY CAPITAL MARKETS/MARCHES DES CAPITAUX GENUITY,"May 11, 2010",Genuity Capital Markets
Investment Dealer,"September 28, 2009",GENUITY CAPITAL MARKETS/MARCHES DES CAPITAUX GENUITY,"May 10, 2010",Genuity Capital Markets
Investment Dealer,"November 08, 2004",GENUITY CAPITAL MARKETS/MARCHES DES CAPITAUX GENUITY,"September 28, 2009",Genuity Capital Markets
Securities,"May 10, 2010",GENUITY CAPITAL MARKETS/MARCHES DES CAPITAUX GENUITY,"May 11, 2010",Genuity Capital Markets
Securities,"November 08, 2004",GENUITY CAPITAL MARKETS/MARCHES DES CAPITAUX GENUITY,"May 10, 2010",Genuity Capital Markets
Investment Dealer,"May 10, 2010",GENUITY CAPITAL MARKETS/MARCHES DES CAPITAUX GENUITY,"May 10, 2010",Genuity Capital Markets
Investment Dealer,"May 10, 2010",GENUITY CAPITAL MARKETS/MARCHES DES CAPITAUX GENUITY,"June 02, 2010",Genuity Capital Markets
Securities,"May 10, 2010",GENUITY CAPITAL MARKETS/MARCHES DES CAPITAUX GENUITY,"June 02, 2010",Genuity Capital Markets
Securities,"May 10, 2010",GENUITY CAPITAL MARKETS/MARCHES DES CAPITAUX GENUITY,"May 10, 2010",Genuity Capital Markets
Investment Dealer,"May 10, 2010",GENUITY CAPITAL MARKETS/MARCHES DES CAPITAUX GENUITY,"May 11, 2010",Genuity Capital Markets
Investment Dealer,"September 28, 2009",GENUITY CAPITAL MARKETS/MARCHES DES CAPITAUX GENUITY,"May 10, 2010",Genuity Capital Markets
Investment Dealer,"November 15, 2004",GENUITY CAPITAL MARKETS/MARCHES DES CAPITAUX GENUITY,"September 28, 2009",Genuity Capital Markets
Securities,"May 10, 2010",GENUITY CAPITAL MARKETS/MARCHES DES CAPITAUX GENUITY,"May 11, 2010",Genuity Capital Markets
Securities,"November 15, 2004",GENUITY CAPITAL MARKETS/MARCHES DES CAPITAUX GENUITY,"May 10, 2010",Genuity Capital Markets
Investment Dealer,"May 10, 2010",GENUITY CAPITAL MARKETS/MARCHES DES CAPITAUX GENUITY,"May 10, 2010",Genuity Capital Markets
Investment Dealer,"May 10, 2010",GENUITY CAPITAL MARKETS/MARCHES DES CAPITAUX GENUITY,"June 02, 2010",Genuity Capital Markets
Securities,"May 10, 2010",GENUITY CAPITAL MARKETS/MARCHES DES CAPITAUX GENUITY,"June 02, 2010",Genuity Capital Markets
Securities,"May 10, 2010",GENUITY CAPITAL MARKETS/MARCHES DES CAPITAUX GENUITY,"May 10, 2010",Genuity Capital Markets
Investment Dealer,"May 10, 2010",GENUITY CAPITAL MARKETS/MARCHES DES CAPITAUX GENUITY,"May 11, 2010",Genuity Capital Markets
Investment Dealer,"September 28, 2009",GENUITY CAPITAL MARKETS/MARCHES DES CAPITAUX GENUITY,"May 10, 2010",Genuity Capital Markets
Investment Dealer,"November 08, 2004",GENUITY CAPITAL MARKETS/MARCHES DES CAPITAUX GENUITY,"September 28, 2009",Genuity Capital Markets
Securities,"May 10, 2010",GENUITY CAPITAL MARKETS/MARCHES DES CAPITAUX GENUITY,"May 11, 2010",Genuity Capital Markets
Securities,"November 08, 2004",GENUITY CAPITAL MARKETS/MARCHES DES CAPITAUX GENUITY,"May 10, 2010",Genuity Capital Markets
Investment Dealer,"May 10, 2010",GENUITY CAPITAL MARKETS/MARCHES DES CAPITAUX GENUITY,"May 10, 2010",Genuity Capital Markets
Investment Dealer,"May 10, 2010",GENUITY CAPITAL MARKETS/MARCHES DES CAPITAUX GENUITY,"June 02, 2010",Genuity Capital Markets
Securities,"May 10, 2010",GENUITY CAPITAL MARKETS/MARCHES DES CAPITAUX GENUITY,"June 02, 2010",Genuity Capital Markets
Securities,"May 10, 2010",GENUITY CAPITAL MARKETS/MARCHES DES CAPITAUX GENUITY,"May 10, 2010",Genuity Capital Markets
Investment Dealer,"May 10, 2010",GENUITY CAPITAL MARKETS/MARCHES DES CAPITAUX GENUITY,"May 11, 2010",Genuity Capital Markets
Investment Dealer,"September 28, 2009",GENUITY CAPITAL MARKETS/MARCHES DES CAPITAUX GENUITY,"May 10, 2010",Genuity Capital Markets
Investment Dealer,"November 15, 2004",GENUITY CAPITAL MARKETS/MARCHES DES CAPITAUX GENUITY,"September 28, 2009",Genuity Capital Markets
Securities,"May 10, 2010",GENUITY CAPITAL MARKETS/MARCHES DES CAPITAUX GENUITY,"May 11, 2010",Genuity Capital Markets
Securities,"November 15, 2004",GENUITY CAPITAL MARKETS/MARCHES DES CAPITAUX GENUITY,"May 10, 2010",Genuity Capital Markets
Investment Dealer,"May 10, 2010",GENUITY CAPITAL MARKETS/MARCHES DES CAPITAUX GENUITY,"May 10, 2010",Genuity Capital Markets
Investment Dealer,"May 10, 2010",GENUITY CAPITAL MARKETS/MARCHES DES CAPITAUX GENUITY,"June 02, 2010",Genuity Capital Markets
Securities,"May 10, 2010",GENUITY CAPITAL MARKETS/MARCHES DES CAPITAUX GENUITY,"June 02, 2010",Genuity Capital Markets
Securities,"May 10, 2010",GENUITY CAPITAL MARKETS/MARCHES DES CAPITAUX GENUITY,"May 10, 2010",Genuity Capital Markets
Investment Dealer,"May 10, 2010",GENUITY CAPITAL MARKETS/MARCHES DES CAPITAUX GENUITY,"May 11, 2010",Genuity Capital Markets
Investment Dealer,"September 28, 2009",GENUITY CAPITAL MARKETS/MARCHES DES CAPITAUX GENUITY,"May 10, 2010",Genuity Capital Markets
Unrestricted Practice Dealer,"February 18, 2005",GENUITY CAPITAL MARKETS/MARCHES DES CAPITAUX GENUITY,"September 28, 2009",Genuity Capital Markets
Securities,"May 10, 2010",GENUITY CAPITAL MARKETS/MARCHES DES CAPITAUX GENUITY,"May 11, 2010",Genuity Capital Markets
Securities,"February 18, 2005",GENUITY CAPITAL MARKETS/MARCHES DES CAPITAUX GENUITY,"May 10, 2010",Genuity Capital Markets
Investment Dealer,"May 10, 2010",GENUITY CAPITAL MARKETS/MARCHES DES CAPITAUX GENUITY,"May 10, 2010",Genuity Capital Markets
Investment Dealer,"May 10, 2010",GENUITY CAPITAL MARKETS/MARCHES DES CAPITAUX GENUITY,"June 02, 2010",Genuity Capital Markets
Securities,"May 10, 2010",GENUITY CAPITAL MARKETS/MARCHES DES CAPITAUX GENUITY,"June 02, 2010",Genuity Capital Markets
Securities,"May 10, 2010",GENUITY CAPITAL MARKETS/MARCHES DES CAPITAUX GENUITY,"May 10, 2010",Genuity Capital Markets
Investment Dealer,"May 10, 2010",GENUITY CAPITAL MARKETS/MARCHES DES CAPITAUX GENUITY,"May 11, 2010",Genuity Capital Markets
Investment Dealer,"September 28, 2009",GENUITY CAPITAL MARKETS/MARCHES DES CAPITAUX GENUITY,"May 10, 2010",Genuity Capital Markets
Investment Dealer,"November 09, 2004",GENUITY CAPITAL MARKETS/MARCHES DES CAPITAUX GENUITY,"September 28, 2009",Genuity Capital Markets
Securities,"May 10, 2010",GENUITY CAPITAL MARKETS/MARCHES DES CAPITAUX GENUITY,"May 11, 2010",Genuity Capital Markets
Securities,"November 09, 2004",GENUITY CAPITAL MARKETS/MARCHES DES CAPITAUX GENUITY,"May 10, 2010",Genuity Capital Markets
Investment Dealer,"May 10, 2010",GENUITY CAPITAL MARKETS/MARCHES DES CAPITAUX GENUITY,"May 10, 2010",Genuity Capital Markets
Investment Dealer,"May 10, 2010",GENUITY CAPITAL MARKETS/MARCHES DES CAPITAUX GENUITY,"June 02, 2010",Genuity Capital Markets
Securities,"May 10, 2010",GENUITY CAPITAL MARKETS/MARCHES DES CAPITAUX GENUITY,"June 02, 2010",Genuity Capital Markets
Securities,"May 10, 2010",GENUITY CAPITAL MARKETS/MARCHES DES CAPITAUX GENUITY,"May 10, 2010",Genuity Capital Markets
Investment Dealer,"May 10, 2010",GENUITY CAPITAL MARKETS/MARCHES DES CAPITAUX GENUITY,"May 11, 2010",Genuity Capital Markets
Investment Dealer,"September 28, 2009",GENUITY CAPITAL MARKETS/MARCHES DES CAPITAUX GENUITY,"May 10, 2010",Genuity Capital Markets
Broker - Securities,"September 09, 2009",GENUITY CAPITAL MARKETS/MARCHES DES CAPITAUX GENUITY,"September 28, 2009",Genuity Capital Markets
Broker-Securities Issuer,"April 08, 2009",GENUITY CAPITAL MARKETS/MARCHES DES CAPITAUX GENUITY,"September 09, 2009",Genuity Capital Markets
Securities,"May 10, 2010",GENUITY CAPITAL MARKETS/MARCHES DES CAPITAUX GENUITY,"May 11, 2010",Genuity Capital Markets
Securities,"September 09, 2009",GENUITY CAPITAL MARKETS/MARCHES DES CAPITAUX GENUITY,"May 10, 2010",Genuity Capital Markets
Investment Dealer,"May 10, 2010",GENUITY CAPITAL MARKETS/MARCHES DES CAPITAUX GENUITY,"May 10, 2010",Genuity Capital Markets
Investment Dealer,"May 10, 2010",GENUITY CAPITAL MARKETS/MARCHES DES CAPITAUX GENUITY,"June 02, 2010",Genuity Capital Markets
Securities,"May 10, 2010",GENUITY CAPITAL MARKETS/MARCHES DES CAPITAUX GENUITY,"June 02, 2010",Genuity Capital Markets
Securities,"May 10, 2010",GENUITY CAPITAL MARKETS/MARCHES DES CAPITAUX GENUITY,"May 10, 2010",Genuity Capital Markets
Broker,"September 01, 1997",GOEPEL SHIELDS & PARTNERS INC.,"March 31, 1998",Goepel Shields & Partners Inc.
Underwriter,"January 15, 1997",GOEPEL SHIELDS & PARTNERS INC.,"March 31, 1998",Goepel Shields & Partners Inc.
Broker,"September 01, 1995",GOEPEL SHIELDS & PARTNERS INC.,"August 31, 1997",Goepel Shields & Partners Inc.
Broker,"September 01, 1993",GOEPEL SHIELDS & PARTNERS INC.,"August 31, 1995",Goepel Shields & Partners Inc.
Broker,"September 01, 1991",GOEPEL SHIELDS & PARTNERS INC.,"August 31, 1993",Goepel Shields & Partners Inc.
Broker,"September 01, 1989",GOEPEL SHIELDS & PARTNERS INC.,"August 31, 1991",Goepel Shields & Partners Inc.
Investment Dealer,"September 28, 2009",GOLDEN CAPITAL SECURITIES LIMITED,"February 23, 2010",Golden Capital Securities Limited
Investment Dealer,"March 14, 2003",GOLDEN CAPITAL SECURITIES LIMITED,"February 23, 2010",Golden Capital Securities Limited
"Securities, Options & Futures Contracts and Futures Contract Options","March 14, 2003",GOLDEN CAPITAL SECURITIES LIMITED,"February 23, 2010",Golden Capital Securities Limited
Investment Dealer,"September 28, 2009",GOLDEN CAPITAL SECURITIES LIMITED,"March 25, 2010",Golden Capital Securities Limited
Investment Dealer (Securities and Exchange Contracts and Underwriter),"March 14, 2003",GOLDEN CAPITAL SECURITIES LIMITED,"September 28, 2009",Golden Capital Securities Limited
Exchange Contracts Dealer,"July 20, 1994",GOLDEN CAPITAL SECURITIES LIMITED,"January 01, 1996",Golden Capital Securities Limited
Exchange Contracts Dealer,"July 20, 1992",GOLDEN CAPITAL SECURITIES LIMITED,"July 19, 1994",Golden Capital Securities Limited
Exchange Contracts Dealer,"July 20, 1990",GOLDEN CAPITAL SECURITIES LIMITED,"July 19, 1992",Golden Capital Securities Limited
"Securities, Options & Futures Contracts and Futures Contract Options","March 14, 2003",GOLDEN CAPITAL SECURITIES LIMITED,"March 25, 2010",Golden Capital Securities Limited
Investment Dealer,"January 01, 2003",GOLDEN CAPITAL SECURITIES LIMITED,"March 14, 2003",Golden Capital Securities Limited
Underwriter,"January 01, 2003",GOLDEN CAPITAL SECURITIES LIMITED,"March 14, 2003",Golden Capital Securities Limited
Investment Dealer,"July 20, 2002",GOLDEN CAPITAL SECURITIES LIMITED,"January 01, 2003",Golden Capital Securities Limited
Underwriter,"July 20, 2002",GOLDEN CAPITAL SECURITIES LIMITED,"January 01, 2003",Golden Capital Securities Limited
Investment Dealer,"July 20, 2000",GOLDEN CAPITAL SECURITIES LIMITED,"July 20, 2002",Golden Capital Securities Limited
Underwriter,"July 20, 2000",GOLDEN CAPITAL SECURITIES LIMITED,"July 20, 2002",Golden Capital Securities Limited
Investment Dealer,"January 01, 2000",GOLDEN CAPITAL SECURITIES LIMITED,"July 19, 2000",Golden Capital Securities Limited
Underwriter,"January 01, 2000",GOLDEN CAPITAL SECURITIES LIMITED,"July 19, 2000",Golden Capital Securities Limited
Broker,"July 20, 1998",GOLDEN CAPITAL SECURITIES LIMITED,"December 31, 1999",Golden Capital Securities Limited
Underwriter,"July 20, 1998",GOLDEN CAPITAL SECURITIES LIMITED,"December 31, 1999",Golden Capital Securities Limited
Broker,"July 20, 1996",GOLDEN CAPITAL SECURITIES LIMITED,"July 19, 1998",Golden Capital Securities Limited
Underwriter,"July 20, 1996",GOLDEN CAPITAL SECURITIES LIMITED,"July 19, 1998",Golden Capital Securities Limited
Broker,"January 01, 1996",GOLDEN CAPITAL SECURITIES LIMITED,"July 19, 1996",Golden Capital Securities Limited
Broker,"July 20, 1992",GOLDEN CAPITAL SECURITIES LIMITED,"July 19, 1994",Golden Capital Securities Limited
Broker,"July 20, 1990",GOLDEN CAPITAL SECURITIES LIMITED,"July 19, 1992",Golden Capital Securities Limited
Investment Dealer,"September 28, 2009",GOLDEN CAPITAL SECURITIES LIMITED,"February 23, 2010",Golden Capital Securities Limited
Investment Dealer,"March 14, 2003",GOLDEN CAPITAL SECURITIES LIMITED,"February 23, 2010",Golden Capital Securities Limited
"Securities, Options & Futures Contracts and Futures Contract Options","March 14, 2003",GOLDEN CAPITAL SECURITIES LIMITED,"February 23, 2010",Golden Capital Securities Limited
Investment Dealer,"February 23, 2010",GOLDEN CAPITAL SECURITIES LIMITED,"March 25, 2010",Golden Capital Securities Limited
Investment Dealer,"February 23, 2010",GOLDEN CAPITAL SECURITIES LIMITED,"March 25, 2010",Golden Capital Securities Limited
"Securities, Options & Futures Contracts and Futures Contract Options","February 23, 2010",GOLDEN CAPITAL SECURITIES LIMITED,"March 25, 2010",Golden Capital Securities Limited
Investment Dealer,"July 25, 1997",GORDON CAPITAL CORPORATION,"January 01, 1999",Gordon Capital Corporation
Underwriter,"February 26, 1997",GORDON CAPITAL CORPORATION,"January 01, 1999",Gordon Capital Corporation
Investment Dealer,"February 01, 1997",GORDON CAPITAL CORPORATION,"July 24, 1997",Gordon Capital Corporation
Broker,"July 25, 1995",GORDON CAPITAL CORPORATION,"February 01, 1997",Gordon Capital Corporation
Broker,"July 25, 1993",GORDON CAPITAL CORPORATION,"July 24, 1995",Gordon Capital Corporation
Broker,"July 25, 1991",GORDON CAPITAL CORPORATION,"July 24, 1993",Gordon Capital Corporation
Broker,"July 25, 1989",GORDON CAPITAL CORPORATION,"July 24, 1991",Gordon Capital Corporation
Broker,"July 25, 1987",GORDON CAPITAL CORPORATION,"July 24, 1989",Gordon Capital Corporation
Broker,"July 25, 1985",GORDON CAPITAL CORPORATION,"July 24, 1987",Gordon Capital Corporation
Broker,"October 19, 1984",GORDON CAPITAL CORPORATION,"July 24, 1985",Gordon Capital Corporation
Investment Counsel,"June 30, 1994",GRAFTON GLOBAL MANAGEMENT LTD.,"August 29, 1994",Grafton Global Management Ltd.
Broker,"November 30, 1996",GRAFTON GLOBAL MANAGEMENT LTD.,"March 07, 1997",Grafton Global Management Ltd.
Broker,"February 29, 1996",GRAFTON GLOBAL MANAGEMENT LTD.,"November 29, 1996",Grafton Global Management Ltd.
Broker,"February 29, 1996",GRAFTON GLOBAL MANAGEMENT LTD.,"November 29, 1996",Grafton Global Management Ltd.
Broker,"February 29, 1996",GRAFTON GLOBAL MANAGEMENT LTD.,"November 29, 1996",Grafton Global Management Ltd.
Broker,"November 30, 1994",GRAFTON GLOBAL MANAGEMENT LTD.,"January 07, 1996",Grafton Global Management Ltd.
Investment Dealer,"December 18, 2003",GRAYDON ELLIOTT CAPITAL CORPORATION,"February 26, 2007",Graydon Elliott Capital Corporation
Securities,"December 18, 2003",GRAYDON ELLIOTT CAPITAL CORPORATION,"February 26, 2007",Graydon Elliott Capital Corporation
Investment Dealer,"February 26, 2007",GRAYDON ELLIOTT CAPITAL CORPORATION,"October 16, 2007",Graydon Elliott Capital Corporation
Securities,"February 26, 2007",GRAYDON ELLIOTT CAPITAL CORPORATION,"October 16, 2007",Graydon Elliott Capital Corporation
Investment Dealer (Securities and Underwriter),"November 17, 2003",GRAYDON ELLIOTT CAPITAL CORPORATION,"February 26, 2007",Graydon Elliott Capital Corporation
Investment Dealer (Securities),"May 21, 2003",GRAYDON ELLIOTT CAPITAL CORPORATION,"December 29, 2003",Graydon Elliott Capital Corporation
Securities & Options,"May 21, 2003",GRAYDON ELLIOTT CAPITAL CORPORATION,"February 26, 2007",Graydon Elliott Capital Corporation
Investment Dealer (Securities and Underwriter),"February 26, 2007",GRAYDON ELLIOTT CAPITAL CORPORATION,"October 16, 2007",Graydon Elliott Capital Corporation
Securities & Options,"February 26, 2007",GRAYDON ELLIOTT CAPITAL CORPORATION,"October 16, 2007",Graydon Elliott Capital Corporation
Broker,"August 14, 1995",GREEN LINE INVESTOR SERVICES INC.,"February 01, 1996",Green Line Investor Services Inc.
Broker,"August 14, 1993",GREEN LINE INVESTOR SERVICES INC.,"August 13, 1995",Green Line Investor Services Inc.
Broker,"August 14, 1991",GREEN LINE INVESTOR SERVICES INC.,"August 13, 1993",Green Line Investor Services Inc.
Broker,"August 14, 1989",GREEN LINE INVESTOR SERVICES INC.,"August 13, 1991",Green Line Investor Services Inc.
Broker,"February 11, 1988",GREEN LINE INVESTOR SERVICES INC.,"August 13, 1989",Green Line Investor Services Inc.
Securities Advisor,"January 22, 1996",GROOME CAPITAL.COM INC. Z (RESIGNED DEC 11/01),"September 16, 1996",Groome Capital.com Inc.
Investment Dealer,"September 16, 2000",GROOME CAPITAL.COM INC. Z (RESIGNED DEC 11/01),"December 11, 2001",Groome Capital.com Inc.
Underwriter,"September 16, 2000",GROOME CAPITAL.COM INC. Z (RESIGNED DEC 11/01),"December 11, 2001",Groome Capital.com Inc.
Investment Dealer,"May 12, 1999",GROOME CAPITAL.COM INC. Z (RESIGNED DEC 11/01),"September 15, 2000",Groome Capital.com Inc.
Underwriter,"May 12, 1999",GROOME CAPITAL.COM INC. Z (RESIGNED DEC 11/01),"September 15, 2000",Groome Capital.com Inc.
Investment Dealer,"September 16, 1998",GROOME CAPITAL.COM INC. Z (RESIGNED DEC 11/01),"May 12, 1999",Groome Capital.com Inc.
Underwriter,"September 16, 1998",GROOME CAPITAL.COM INC. Z (RESIGNED DEC 11/01),"May 12, 1999",Groome Capital.com Inc.
Investment Dealer,"September 16, 1996",GROOME CAPITAL.COM INC. Z (RESIGNED DEC 11/01),"September 15, 1998",Groome Capital.com Inc.
Underwriter,"September 16, 1996",GROOME CAPITAL.COM INC. Z (RESIGNED DEC 11/01),"September 15, 1998",Groome Capital.com Inc.
Investment Dealer,"March 14, 2003",GRS SECURITIES INC./VALEURS MOBILIERES GRS INC.,"October 14, 2008",GRS Securities Inc.
Securities,"March 14, 2003",GRS SECURITIES INC./VALEURS MOBILIERES GRS INC.,"October 14, 2008",GRS Securities Inc.
Investment Dealer (Securities),"March 14, 2003",GRS SECURITIES INC./VALEURS MOBILIERES GRS INC.,"October 14, 2008",GRS Securities Inc.
Securities,"March 14, 2003",GRS SECURITIES INC./VALEURS MOBILIERES GRS INC.,"October 14, 2008",GRS Securities Inc.
Investment Dealer,"January 01, 2003",GRS SECURITIES INC./VALEURS MOBILIERES GRS INC.,"March 14, 2003",GRS Securities Inc.
Investment Dealer,"April 01, 2002",GRS SECURITIES INC./VALEURS MOBILIERES GRS INC.,"January 01, 2003",GRS Securities Inc.
Investment Dealer,"March 14, 2003",GRS SECURITIES INC./VALEURS MOBILIERES GRS INC.,"October 14, 2008",GRS Securities Inc.
Securities,"March 14, 2003",GRS SECURITIES INC./VALEURS MOBILIERES GRS INC.,"October 14, 2008",GRS Securities Inc.
Investment Dealer,"October 14, 2008",GRS SECURITIES INC./VALEURS MOBILIERES GRS INC.,"December 18, 2008",GRS Securities Inc.
Securities,"October 14, 2008",GRS SECURITIES INC./VALEURS MOBILIERES GRS INC.,"December 18, 2008",GRS Securities Inc.
Investment Dealer,"March 14, 2003",GRS SECURITIES INC./VALEURS MOBILIERES GRS INC.,"October 14, 2008",GRS Securities Inc.
Securities,"March 14, 2003",GRS SECURITIES INC./VALEURS MOBILIERES GRS INC.,"October 14, 2008",GRS Securities Inc.
Investment Dealer,"March 14, 2003",GRS SECURITIES INC./VALEURS MOBILIERES GRS INC.,"October 14, 2008",GRS Securities Inc.
Securities,"March 14, 2003",GRS SECURITIES INC./VALEURS MOBILIERES GRS INC.,"October 14, 2008",GRS Securities Inc.
Investment Dealer,"March 14, 2003",GRS SECURITIES INC./VALEURS MOBILIERES GRS INC.,"November 28, 2008",GRS Securities Inc.
Securities,"March 14, 2003",GRS SECURITIES INC./VALEURS MOBILIERES GRS INC.,"November 28, 2008",GRS Securities Inc.
Investment Dealer,"March 14, 2003",GRS SECURITIES INC./VALEURS MOBILIERES GRS INC.,"October 14, 2008",GRS Securities Inc.
Securities,"March 14, 2003",GRS SECURITIES INC./VALEURS MOBILIERES GRS INC.,"October 14, 2008",GRS Securities Inc.
Investment Dealer,"March 14, 2003",GRS SECURITIES INC./VALEURS MOBILIERES GRS INC.,"December 02, 2008",GRS Securities Inc.
Securities,"March 14, 2003",GRS SECURITIES INC./VALEURS MOBILIERES GRS INC.,"December 02, 2008",GRS Securities Inc.
Investment Dealer,"March 14, 2003",GRS SECURITIES INC./VALEURS MOBILIERES GRS INC.,"October 14, 2008",GRS Securities Inc.
Securities,"March 14, 2003",GRS SECURITIES INC./VALEURS MOBILIERES GRS INC.,"October 14, 2008",GRS Securities Inc.
Unrestricted Practice Dealer,"December 15, 2004",GRS SECURITIES INC./VALEURS MOBILIERES GRS INC.,"October 14, 2008",GRS Securities Inc.
Securities,"December 15, 2004",GRS SECURITIES INC./VALEURS MOBILIERES GRS INC.,"October 14, 2008",GRS Securities Inc.
Investment Dealer,"March 14, 2003",GRS SECURITIES INC./VALEURS MOBILIERES GRS INC.,"October 14, 2008",GRS Securities Inc.
Securities,"March 14, 2003",GRS SECURITIES INC./VALEURS MOBILIERES GRS INC.,"October 14, 2008",GRS Securities Inc.
Broker - Securities,"March 14, 2003",GRS SECURITIES INC./VALEURS MOBILIERES GRS INC.,"October 14, 2008",GRS Securities Inc.
Securities,"March 14, 2003",GRS SECURITIES INC./VALEURS MOBILIERES GRS INC.,"October 14, 2008",GRS Securities Inc.
Broker - Securities,"September 22, 2009",GRS SECURITIES INC./VALEURS MOBILIERES GRS INC.,"December 30, 2011",GRS Securities Inc.
Securities,"September 22, 2009",GRS SECURITIES INC./VALEURS MOBILIERES GRS INC.,"December 30, 2011",GRS Securities Inc.
Broker,"August 29, 1988",HECTOR M. CHISHOLM & CO. LIMITED,"April 12, 1990",Hector M. Chisholm & Co. Limited
Broker,"August 29, 1986",HECTOR M. CHISHOLM & CO. LIMITED,"August 28, 1988",Hector M. Chisholm & Co. Limited
Broker,"August 29, 1984",HECTOR M. CHISHOLM & CO. LIMITED,"August 28, 1986",Hector M. Chisholm & Co. Limited
Exchange Contracts Dealer,"May 15, 1989",HSBC CAPITAL CANADA INC.,"May 14, 1991",HSBC Capital Canada Inc.
Investment Dealer,"May 18, 1995",HSBC CAPITAL CANADA INC.,"March 07, 1996",HSBC Capital Canada Inc.
Investment Dealer,"February 06, 1995",HSBC CAPITAL CANADA INC.,"May 17, 1995",HSBC Capital Canada Inc.
Investment Dealer,"May 18, 1993",HSBC CAPITAL CANADA INC.,"March 01, 1995",HSBC Capital Canada Inc.
Investment Dealer,"May 19, 1991",HSBC CAPITAL CANADA INC.,"May 18, 1993",HSBC Capital Canada Inc.
Investment Dealer,"May 19, 1989",HSBC CAPITAL CANADA INC.,"May 18, 1991",HSBC Capital Canada Inc.
Investment Dealer,"March 14, 2003",HSBC INVESTDIRECT INC.,"March 05, 2004",HSBC InvestDirect Inc.
Securities & Options,"March 14, 2003",HSBC INVESTDIRECT INC.,"March 05, 2004",HSBC InvestDirect Inc.
Investment Dealer (Securities),"March 14, 2003",HSBC INVESTDIRECT INC.,"December 31, 2003",HSBC InvestDirect Inc.
Securities & Options,"March 14, 2003",HSBC INVESTDIRECT INC.,"December 31, 2003",HSBC InvestDirect Inc.
Investment Dealer,"January 01, 2003",HSBC INVESTDIRECT INC.,"March 14, 2003",HSBC InvestDirect Inc.
Investment Dealer,"January 01, 2002",HSBC INVESTDIRECT INC.,"January 01, 2003",HSBC InvestDirect Inc.
Investment Dealer,"May 01, 2001",HSBC INVESTDIRECT INC.,"January 01, 2002",HSBC InvestDirect Inc.
Investment Dealer,"June 21, 1999",HSBC INVESTDIRECT INC.,"May 01, 2001",HSBC InvestDirect Inc.
Investment Dealer,"May 01, 1999",HSBC INVESTDIRECT INC.,"June 21, 1999",HSBC InvestDirect Inc.
Investment Dealer,"January 08, 1999",HSBC INVESTDIRECT INC.,"April 30, 1999",HSBC InvestDirect Inc.
Investment Dealer,"May 01, 1997",HSBC INVESTDIRECT INC.,"January 08, 1999",HSBC InvestDirect Inc.
Investment Dealer,"May 01, 1995",HSBC INVESTDIRECT INC.,"April 30, 1997",HSBC InvestDirect Inc.
Investment Dealer,"March 14, 2003",HSBC INVESTDIRECT INC.,"January 01, 2004",HSBC InvestDirect Inc.
Securities & Options,"March 14, 2003",HSBC INVESTDIRECT INC.,"January 01, 2004",HSBC InvestDirect Inc.
Investment Dealer,"March 14, 2003",HSBC INVESTDIRECT INC.,"December 31, 2003",HSBC InvestDirect Inc.
Securities & Options,"March 14, 2003",HSBC INVESTDIRECT INC.,"December 31, 2003",HSBC InvestDirect Inc.
Investment Dealer,"March 14, 2003",HSBC INVESTDIRECT INC.,"December 31, 2003",HSBC InvestDirect Inc.
Securities & Options,"March 14, 2003",HSBC INVESTDIRECT INC.,"December 31, 2003",HSBC InvestDirect Inc.
Investment Dealer,"March 14, 2003",HSBC INVESTDIRECT INC.,"December 31, 2003",HSBC InvestDirect Inc.
Securities & Options,"March 14, 2003",HSBC INVESTDIRECT INC.,"December 31, 2003",HSBC InvestDirect Inc.
Investment Dealer,"March 14, 2003",HSBC INVESTDIRECT INC.,"March 09, 2004",HSBC InvestDirect Inc.
Securities & Options,"March 14, 2003",HSBC INVESTDIRECT INC.,"March 09, 2004",HSBC InvestDirect Inc.
Investment Dealer,"March 14, 2003",HSBC INVESTDIRECT INC.,"December 31, 2003",HSBC InvestDirect Inc.
Securities & Options,"March 14, 2003",HSBC INVESTDIRECT INC.,"December 31, 2003",HSBC InvestDirect Inc.
Unrestricted Practice Dealer,"December 22, 2004",VALEURS MOBILIERES IFORUM INC. / IFORUM SECURITIES INC.,"April 06, 2006",Iforum Securities Inc.
Securities & Options,"December 22, 2004",VALEURS MOBILIERES IFORUM INC. / IFORUM SECURITIES INC.,"April 06, 2006",Iforum Securities Inc.
Investment Dealer,"March 14, 2003",IPO CAPITAL CORP.,"January 09, 2004",IPO Capital Corp
Securities & Options,"March 14, 2003",IPO CAPITAL CORP.,"January 09, 2004",IPO Capital Corp
Investment Dealer,"January 09, 2004",IPO CAPITAL CORP.,"February 06, 2007",IPO Capital Corp
Securities & Options,"January 09, 2004",IPO CAPITAL CORP.,"February 06, 2007",IPO Capital Corp
Investment Dealer (Securities and Underwriter),"March 14, 2003",IPO CAPITAL CORP.,"January 01, 2004",IPO Capital Corp
Securities & Options,"March 14, 2003",IPO CAPITAL CORP.,"January 01, 2004",IPO Capital Corp
Investment Dealer,"January 01, 2003",IPO CAPITAL CORP.,"March 14, 2003",IPO Capital Corp
Underwriter,"January 01, 2003",IPO CAPITAL CORP.,"March 14, 2003",IPO Capital Corp
Investment Dealer,"January 01, 2002",IPO CAPITAL CORP.,"January 01, 2003",IPO Capital Corp
Underwriter,"January 01, 2002",IPO CAPITAL CORP.,"January 01, 2003",IPO Capital Corp
Investment Dealer,"December 09, 2000",IPO CAPITAL CORP.,"January 01, 2002",IPO Capital Corp
Underwriter,"December 09, 2000",IPO CAPITAL CORP.,"January 01, 2002",IPO Capital Corp
Investment Dealer,"December 09, 1998",IPO CAPITAL CORP.,"December 08, 2000",IPO Capital Corp
Underwriter,"December 09, 1998",IPO CAPITAL CORP.,"December 08, 2000",IPO Capital Corp
Investment Dealer,"December 09, 1996",IPO CAPITAL CORP.,"December 08, 1998",IPO Capital Corp
Underwriter,"December 09, 1996",IPO CAPITAL CORP.,"December 08, 1998",IPO Capital Corp
Investment Dealer (Securities and Underwriter),"January 01, 2004",IPO CAPITAL CORP.,"February 06, 2007",IPO Capital Corp
Securities & Options,"January 01, 2004",IPO CAPITAL CORP.,"February 06, 2007",IPO Capital Corp
Broker - Securities,"March 14, 2003",IPO CAPITAL CORP.,"April 29, 2003",IPO Capital Corp
Securities & Options,"March 14, 2003",IPO CAPITAL CORP.,"April 29, 2003",IPO Capital Corp
Broker - Securities,"April 29, 2003",IPO CAPITAL CORP.,"February 14, 2007",IPO Capital Corp
Securities & Options,"April 29, 2003",IPO CAPITAL CORP.,"February 14, 2007",IPO Capital Corp
Investment Dealer,"September 28, 2009",J.F. MACKIE & COMPANY LTD.,"March 25, 2010",J.F. Mackie & Company Ltd.
Investment Dealer,"March 14, 2003",J.F. MACKIE & COMPANY LTD.,"September 28, 2009",J.F. Mackie & Company Ltd.
"Securities, Options & Managed Accounts","March 23, 2006",J.F. MACKIE & COMPANY LTD.,"March 25, 2010",J.F. Mackie & Company Ltd.
Securities & Options,"March 14, 2003",J.F. MACKIE & COMPANY LTD.,"March 23, 2006",J.F. Mackie & Company Ltd.
Investment Dealer,"September 28, 2009",J.F. MACKIE & COMPANY LTD.,"March 25, 2010",J.F. Mackie & Company Ltd.
Investment Dealer (Securities and Underwriter),"June 20, 2008",J.F. MACKIE & COMPANY LTD.,"September 28, 2009",J.F. Mackie & Company Ltd.
Investment Dealer (Securities),"March 14, 2003",J.F. MACKIE & COMPANY LTD.,"June 25, 2008",J.F. Mackie & Company Ltd.
"Securities, Options & Managed Accounts","March 24, 2006",J.F. MACKIE & COMPANY LTD.,"March 25, 2010",J.F. Mackie & Company Ltd.
Securities & Options,"March 14, 2003",J.F. MACKIE & COMPANY LTD.,"March 24, 2006",J.F. Mackie & Company Ltd.
Investment Dealer,"January 01, 2003",J.F. MACKIE & COMPANY LTD.,"March 14, 2003",J.F. Mackie & Company Ltd.
Investment Dealer,"January 01, 2002",J.F. MACKIE & COMPANY LTD.,"January 01, 2003",J.F. Mackie & Company Ltd.
Investment Dealer,"February 08, 2001",J.F. MACKIE & COMPANY LTD.,"January 01, 2002",J.F. Mackie & Company Ltd.
Investment Dealer,"September 28, 2009",J.F. MACKIE & COMPANY LTD.,"March 25, 2010",J.F. Mackie & Company Ltd.
Investment Dealer,"November 17, 2004",J.F. MACKIE & COMPANY LTD.,"September 28, 2009",J.F. Mackie & Company Ltd.
"Securities, Options & Managed Accounts","March 23, 2006",J.F. MACKIE & COMPANY LTD.,"March 25, 2010",J.F. Mackie & Company Ltd.
Securities & Options,"November 17, 2004",J.F. MACKIE & COMPANY LTD.,"March 23, 2006",J.F. Mackie & Company Ltd.
Investment Dealer,"September 28, 2009",J.F. MACKIE & COMPANY LTD.,"March 25, 2010",J.F. Mackie & Company Ltd.
Investment Dealer,"July 07, 2005",J.F. MACKIE & COMPANY LTD.,"September 28, 2009",J.F. Mackie & Company Ltd.
"Securities, Options & Managed Accounts","March 24, 2006",J.F. MACKIE & COMPANY LTD.,"March 25, 2010",J.F. Mackie & Company Ltd.
Securities & Options,"July 07, 2005",J.F. MACKIE & COMPANY LTD.,"March 24, 2006",J.F. Mackie & Company Ltd.
Investment Dealer,"September 28, 2009",J.F. MACKIE & COMPANY LTD.,"March 25, 2010",J.F. Mackie & Company Ltd.
Investment Dealer,"July 18, 2005",J.F. MACKIE & COMPANY LTD.,"September 28, 2009",J.F. Mackie & Company Ltd.
"Securities, Options & Managed Accounts","March 24, 2006",J.F. MACKIE & COMPANY LTD.,"March 25, 2010",J.F. Mackie & Company Ltd.
Securities & Options,"July 18, 2005",J.F. MACKIE & COMPANY LTD.,"March 24, 2006",J.F. Mackie & Company Ltd.
Derivatives Dealer,"December 11, 2009",J.F. MACKIE & COMPANY LTD.,"March 25, 2010",J.F. Mackie & Company Ltd.
Investment Dealer,"September 28, 2009",J.F. MACKIE & COMPANY LTD.,"March 25, 2010",J.F. Mackie & Company Ltd.
Unrestricted Practice Dealer,"July 30, 2007",J.F. MACKIE & COMPANY LTD.,"September 28, 2009",J.F. Mackie & Company Ltd.
"Securities, Options & Managed Accounts","July 30, 2007",J.F. MACKIE & COMPANY LTD.,"March 25, 2010",J.F. Mackie & Company Ltd.
Investment Dealer,"September 28, 2009",J.F. MACKIE & COMPANY LTD.,"March 25, 2010",J.F. Mackie & Company Ltd.
Investment Dealer,"March 14, 2003",J.F. MACKIE & COMPANY LTD.,"September 28, 2009",J.F. Mackie & Company Ltd.
"Securities, Options & Managed Accounts","March 23, 2006",J.F. MACKIE & COMPANY LTD.,"March 25, 2010",J.F. Mackie & Company Ltd.
Securities & Options,"March 14, 2003",J.F. MACKIE & COMPANY LTD.,"March 23, 2006",J.F. Mackie & Company Ltd.
